2320;TOP HALF INTEGRAL;Sm;0;ON;;;;;Y;;;;;
2321;BOTTOM HALF INTEGRAL;Sm;0;ON;;;;;Y;;;;;
2322;FROWN;So;0;ON;;;;;N;;;;;
2323;SMILE;So;0;ON;;;;;N;;;;;
2324;UP ARROWHEAD BETWEEN TWO HORIZONTAL BARS;So;0;ON;;;;;N;ENTER KEY;;;;
2325;OPTION KEY;So;0;ON;;;;;N;;;;;
2326;ERASE TO THE RIGHT;So;0;ON;;;;;N;DELETE TO THE RIGHT KEY;;;;
2327;X IN A RECTANGLE BOX;So;0;ON;;;;;N;CLEAR KEY;;;;
2328;KEYBOARD;So;0;ON;;;;;N;;;;;
2329;LEFT-POINTING ANGLE BRACKET;Ps;0;ON;3008;;;;Y;BRA;;;;
232A;RIGHT-POINTING ANGLE BRACKET;Pe;0;ON;3009;;;;Y;KET;;;;
232B;ERASE TO THE LEFT;So;0;ON;;;;;N;DELETE TO THE LEFT KEY;;;;
232C;BENZENE RING;So;0;ON;;;;;N;;;;;
232D;CYLINDRICITY;So;0;ON;;;;;N;;;;;
232E;ALL AROUND-PROFILE;So;0;ON;;;;;N;;;;;
232F;SYMMETRY;So;0;ON;;;;;N;;;;;
2330;TOTAL RUNOUT;So;0;ON;;;;;N;;;;;
2331;DIMENSION ORIGIN;So;0;ON;;;;;N;;;;;
2332;CONICAL TAPER;So;0;ON;;;;;N;;;;;
2333;SLOPE;So;0;ON;;;;;N;;;;;
2334;COUNTERBORE;So;0;ON;;;;;N;;;;;
2335;COUNTERSINK;So;0;ON;;;;;N;;;;;
2336;APL FUNCTIONAL SYMBOL I-BEAM;So;0;L;;;;;N;;;;;
2337;APL FUNCTIONAL SYMBOL SQUISH QUAD;So;0;L;;;;;N;;;;;
2338;APL FUNCTIONAL SYMBOL QUAD EQUAL;So;0;L;;;;;N;;;;;
2339;APL FUNCTIONAL SYMBOL QUAD DIVIDE;So;0;L;;;;;N;;;;;
233A;APL FUNCTIONAL SYMBOL QUAD DIAMOND;So;0;L;;;;;N;;;;;
233B;APL FUNCTIONAL SYMBOL QUAD JOT;So;0;L;;;;;N;;;;;
233C;APL FUNCTIONAL SYMBOL QUAD CIRCLE;So;0;L;;;;;N;;;;;
233D;APL FUNCTIONAL SYMBOL CIRCLE STILE;So;0;L;;;;;N;;;;;
233E;APL FUNCTIONAL SYMBOL CIRCLE JOT;So;0;L;;;;;N;;;;;
233F;APL FUNCTIONAL SYMBOL SLASH BAR;So;0;L;;;;;N;;;;;
2340;APL FUNCTIONAL SYMBOL BACKSLASH BAR;So;0;L;;;;;N;;;;;
2341;APL FUNCTIONAL SYMBOL QUAD SLASH;So;0;L;;;;;N;;;;;
2342;APL FUNCTIONAL SYMBOL QUAD BACKSLASH;So;0;L;;;;;N;;;;;
2343;APL FUNCTIONAL SYMBOL QUAD LESS-THAN;So;0;L;;;;;N;;;;;
2344;APL FUNCTIONAL SYMBOL QUAD GREATER-THAN;So;0;L;;;;;N;;;;;
2345;APL FUNCTIONAL SYMBOL LEFTWARDS VANE;So;0;L;;;;;N;;;;;
2346;APL FUNCTIONAL SYMBOL RIGHTWARDS VANE;So;0;L;;;;;N;;;;;
2347;APL FUNCTIONAL SYMBOL QUAD LEFTWARDS ARROW;So;0;L;;;;;N;;;;;
2348;APL FUNCTIONAL SYMBOL QUAD RIGHTWARDS ARROW;So;0;L;;;;;N;;;;;
2349;APL FUNCTIONAL SYMBOL CIRCLE BACKSLASH;So;0;L;;;;;N;;;;;
234A;APL FUNCTIONAL SYMBOL DOWN TACK UNDERBAR;So;0;L;;;;;N;;;;;
234B;APL FUNCTIONAL SYMBOL DELTA STILE;So;0;L;;;;;N;;;;;
234C;APL FUNCTIONAL SYMBOL QUAD DOWN CARET;So;0;L;;;;;N;;;;;
234D;APL FUNCTIONAL SYMBOL QUAD DELTA;So;0;L;;;;;N;;;;;
234E;APL FUNCTIONAL SYMBOL DOWN TACK JOT;So;0;L;;;;;N;;;;;
234F;APL FUNCTIONAL SYMBOL UPWARDS VANE;So;0;L;;;;;N;;;;;
2350;APL FUNCTIONAL SYMBOL QUAD UPWARDS ARROW;So;0;L;;;;;N;;;;;
2351;APL FUNCTIONAL SYMBOL UP TACK OVERBAR;So;0;L;;;;;N;;;;;
2352;APL FUNCTIONAL SYMBOL DEL STILE;So;0;L;;;;;N;;;;;
2353;APL FUNCTIONAL SYMBOL QUAD UP CARET;So;0;L;;;;;N;;;;;
2354;APL FUNCTIONAL SYMBOL QUAD DEL;So;0;L;;;;;N;;;;;
2355;APL FUNCTIONAL SYMBOL UP TACK JOT;So;0;L;;;;;N;;;;;
2356;APL FUNCTIONAL SYMBOL DOWNWARDS VANE;So;0;L;;;;;N;;;;;
2357;APL FUNCTIONAL SYMBOL QUAD DOWNWARDS ARROW;So;0;L;;;;;N;;;;;
2358;APL FUNCTIONAL SYMBOL QUOTE UNDERBAR;So;0;L;;;;;N;;;;;
2359;APL FUNCTIONAL SYMBOL DELTA UNDERBAR;So;0;L;;;;;N;;;;;
235A;APL FUNCTIONAL SYMBOL DIAMOND UNDERBAR;So;0;L;;;;;N;;;;;
235B;APL FUNCTIONAL SYMBOL JOT UNDERBAR;So;0;L;;;;;N;;;;;
235C;APL FUNCTIONAL SYMBOL CIRCLE UNDERBAR;So;0;L;;;;;N;;;;;
235D;APL FUNCTIONAL SYMBOL UP SHOE JOT;So;0;L;;;;;N;;;;;
235E;APL FUNCTIONAL SYMBOL QUOTE QUAD;So;0;L;;;;;N;;;;;
235F;APL FUNCTIONAL SYMBOL CIRCLE STAR;So;0;L;;;;;N;;;;;
2360;APL FUNCTIONAL SYMBOL QUAD COLON;So;0;L;;;;;N;;;;;
2361;APL FUNCTIONAL SYMBOL UP TACK DIAERESIS;So;0;L;;;;;N;;;;;
2362;APL FUNCTIONAL SYMBOL DEL DIAERESIS;So;0;L;;;;;N;;;;;
2363;APL FUNCTIONAL SYMBOL STAR DIAERESIS;So;0;L;;;;;N;;;;;
2364;APL FUNCTIONAL SYMBOL JOT DIAERESIS;So;0;L;;;;;N;;;;;
2365;APL FUNCTIONAL SYMBOL CIRCLE DIAERESIS;So;0;L;;;;;N;;;;;
2366;APL FUNCTIONAL SYMBOL DOWN SHOE STILE;So;0;L;;;;;N;;;;;
2367;APL FUNCTIONAL SYMBOL LEFT SHOE STILE;So;0;L;;;;;N;;;;;
2368;APL FUNCTIONAL SYMBOL TILDE DIAERESIS;So;0;L;;;;;N;;;;;
2369;APL FUNCTIONAL SYMBOL GREATER-THAN DIAERESIS;So;0;L;;;;;N;;;;;
236A;APL FUNCTIONAL SYMBOL COMMA BAR;So;0;L;;;;;N;;;;;
236B;APL FUNCTIONAL SYMBOL DEL TILDE;So;0;L;;;;;N;;;;;
236C;APL FUNCTIONAL SYMBOL ZILDE;So;0;L;;;;;N;;;;;
236D;APL FUNCTIONAL SYMBOL STILE TILDE;So;0;L;;;;;N;;;;;
236E;APL FUNCTIONAL SYMBOL SEMICOLON UNDERBAR;So;0;L;;;;;N;;;;;
236F;APL FUNCTIONAL SYMBOL QUAD NOT EQUAL;So;0;L;;;;;N;;;;;
2370;APL FUNCTIONAL SYMBOL QUAD QUESTION;So;0;L;;;;;N;;;;;
2371;APL FUNCTIONAL SYMBOL DOWN CARET TILDE;So;0;L;;;;;N;;;;;
2372;APL FUNCTIONAL SYMBOL UP CARET TILDE;So;0;L;;;;;N;;;;;
2373;APL FUNCTIONAL SYMBOL IOTA;So;0;L;;;;;N;;;;;
2374;APL FUNCTIONAL SYMBOL RHO;So;0;L;;;;;N;;;;;
2375;APL FUNCTIONAL SYMBOL OMEGA;So;0;L;;;;;N;;;;;
2376;APL FUNCTIONAL SYMBOL ALPHA UNDERBAR;So;0;L;;;;;N;;;;;
2377;APL FUNCTIONAL SYMBOL EPSILON UNDERBAR;So;0;L;;;;;N;;;;;
2378;APL FUNCTIONAL SYMBOL IOTA UNDERBAR;So;0;L;;;;;N;;;;;
2379;APL FUNCTIONAL SYMBOL OMEGA UNDERBAR;So;0;L;;;;;N;;;;;
237A;APL FUNCTIONAL SYMBOL ALPHA;So;0;L;;;;;N;;;;;
237B;NOT CHECK MARK;So;0;ON;;;;;N;;;;;
237C;RIGHT ANGLE WITH DOWNWARDS ZIGZAG ARROW;Sm;0;ON;;;;;N;;;;;
237D;SHOULDERED OPEN BOX;So;0;ON;;;;;N;;;;;
237E;BELL SYMBOL;So;0;ON;;;;;N;;;;;
237F;VERTICAL LINE WITH MIDDLE DOT;So;0;ON;;;;;N;;;;;
2380;INSERTION SYMBOL;So;0;ON;;;;;N;;;;;
2381;CONTINUOUS UNDERLINE SYMBOL;So;0;ON;;;;;N;;;;;
2382;DISCONTINUOUS UNDERLINE SYMBOL;So;0;ON;;;;;N;;;;;
2383;EMPHASIS SYMBOL;So;0;ON;;;;;N;;;;;
2384;COMPOSITION SYMBOL;So;0;ON;;;;;N;;;;;
2385;WHITE SQUARE WITH CENTRE VERTICAL LINE;So;0;ON;;;;;N;;;;;
2386;ENTER SYMBOL;So;0;ON;;;;;N;;;;;
2387;ALTERNATIVE KEY SYMBOL;So;0;ON;;;;;N;;;;;
2388;HELM SYMBOL;So;0;ON;;;;;N;;;;;
2389;CIRCLED HORIZONTAL BAR WITH NOTCH;So;0;ON;;;;;N;;;;;
238A;CIRCLED TRIANGLE DOWN;So;0;ON;;;;;N;;;;;
238B;BROKEN CIRCLE WITH NORTHWEST ARROW;So;0;ON;;;;;N;;;;;
238C;UNDO SYMBOL;So;0;ON;;;;;N;;;;;
238D;MONOSTABLE SYMBOL;So;0;ON;;;;;N;;;;;
238E;HYSTERESIS SYMBOL;So;0;ON;;;;;N;;;;;
238F;OPEN-CIRCUIT-OUTPUT H-TYPE SYMBOL;So;0;ON;;;;;N;;;;;
2390;OPEN-CIRCUIT-OUTPUT L-TYPE SYMBOL;So;0;ON;;;;;N;;;;;
2391;PASSIVE-PULL-DOWN-OUTPUT SYMBOL;So;0;ON;;;;;N;;;;;
2392;PASSIVE-PULL-UP-OUTPUT SYMBOL;So;0;ON;;;;;N;;;;;
2393;DIRECT CURRENT SYMBOL FORM TWO;So;0;ON;;;;;N;;;;;
2394;SOFTWARE-FUNCTION SYMBOL;So;0;ON;;;;;N;;;;;
2395;APL FUNCTIONAL SYMBOL QUAD;So;0;L;;;;;N;;;;;
2396;DECIMAL SEPARATOR KEY SYMBOL;So;0;ON;;;;;N;;;;;
2397;PREVIOUS PAGE;So;0;ON;;;;;N;;;;;
2398;NEXT PAGE;So;0;ON;;;;;N;;;;;
2399;PRINT SCREEN SYMBOL;So;0;ON;;;;;N;;;;;
239A;CLEAR SCREEN SYMBOL;So;0;ON;;;;;N;;;;;
239B;LEFT PARENTHESIS UPPER HOOK;Sm;0;ON;;;;;N;;;;;
239C;LEFT PARENTHESIS EXTENSION;Sm;0;ON;;;;;N;;;;;
239D;LEFT PARENTHESIS LOWER HOOK;Sm;0;ON;;;;;N;;;;;
239E;RIGHT PARENTHESIS UPPER HOOK;Sm;0;ON;;;;;N;;;;;
239F;RIGHT PARENTHESIS EXTENSION;Sm;0;ON;;;;;N;;;;;
23A0;RIGHT PARENTHESIS LOWER HOOK;Sm;0;ON;;;;;N;;;;;
23A1;LEFT SQUARE BRACKET UPPER CORNER;Sm;0;ON;;;;;N;;;;;
23A2;LEFT SQUARE BRACKET EXTENSION;Sm;0;ON;;;;;N;;;;;
23A3;LEFT SQUARE BRACKET LOWER CORNER;Sm;0;ON;;;;;N;;;;;
23A4;RIGHT SQUARE BRACKET UPPER CORNER;Sm;0;ON;;;;;N;;;;;
23A5;RIGHT SQUARE BRACKET EXTENSION;Sm;0;ON;;;;;N;;;;;
23A6;RIGHT SQUARE BRACKET LOWER CORNER;Sm;0;ON;;;;;N;;;;;
23A7;LEFT CURLY BRACKET UPPER HOOK;Sm;0;ON;;;;;N;;;;;
23A8;LEFT CURLY BRACKET MIDDLE PIECE;Sm;0;ON;;;;;N;;;;;
23A9;LEFT CURLY BRACKET LOWER HOOK;Sm;0;ON;;;;;N;;;;;
23AA;CURLY BRACKET EXTENSION;Sm;0;ON;;;;;N;;;;;
23AB;RIGHT CURLY BRACKET UPPER HOOK;Sm;0;ON;;;;;N;;;;;
23AC;RIGHT CURLY BRACKET MIDDLE PIECE;Sm;0;ON;;;;;N;;;;;
23AD;RIGHT CURLY BRACKET LOWER HOOK;Sm;0;ON;;;;;N;;;;;
23AE;INTEGRAL EXTENSION;Sm;0;ON;;;;;N;;;;;
23AF;HORIZONTAL LINE EXTENSION;Sm;0;ON;;;;;N;;;;;
23B0;UPPER LEFT OR LOWER RIGHT CURLY BRACKET SECTION;Sm;0;ON;;;;;N;;;;;
23B1;UPPER RIGHT OR LOWER LEFT CURLY BRACKET SECTION;Sm;0;ON;;;;;N;;;;;
23B2;SUMMATION TOP;Sm;0;ON;;;;;N;;;;;
23B3;SUMMATION BOTTOM;Sm;0;ON;;;;;N;;;;;
23B4;TOP SQUARE BRACKET;So;0;ON;;;;;N;;;;;
23B5;BOTTOM SQUARE BRACKET;So;0;ON;;;;;N;;;;;
23B6;BOTTOM SQUARE BRACKET OVER TOP SQUARE BRACKET;So;0;ON;;;;;N;;;;;
23B7;RADICAL SYMBOL BOTTOM;So;0;ON;;;;;N;;;;;
23B8;LEFT VERTICAL BOX LINE;So;0;ON;;;;;N;;;;;
23B9;RIGHT VERTICAL BOX LINE;So;0;ON;;;;;N;;;;;
23BA;HORIZONTAL SCAN LINE-1;So;0;ON;;;;;N;;;;;
23BB;HORIZONTAL SCAN LINE-3;So;0;ON;;;;;N;;;;;
23BC;HORIZONTAL SCAN LINE-7;So;0;ON;;;;;N;;;;;
23BD;HORIZONTAL SCAN LINE-9;So;0;ON;;;;;N;;;;;
23BE;DENTISTRY SYMBOL LIGHT VERTICAL AND TOP RIGHT;So;0;ON;;;;;N;;;;;
23BF;DENTISTRY SYMBOL LIGHT VERTICAL AND BOTTOM RIGHT;So;0;ON;;;;;N;;;;;
23C0;DENTISTRY SYMBOL LIGHT VERTICAL WITH CIRCLE;So;0;ON;;;;;N;;;;;
23C1;DENTISTRY SYMBOL LIGHT DOWN AND HORIZONTAL WITH CIRCLE;So;0;ON;;;;;N;;;;;
23C2;DENTISTRY SYMBOL LIGHT UP AND HORIZONTAL WITH CIRCLE;So;0;ON;;;;;N;;;;;
23C3;DENTISTRY SYMBOL LIGHT VERTICAL WITH TRIANGLE;So;0;ON;;;;;N;;;;;
23C4;DENTISTRY SYMBOL LIGHT DOWN AND HORIZONTAL WITH TRIANGLE;So;0;ON;;;;;N;;;;;
23C5;DENTISTRY SYMBOL LIGHT UP AND HORIZONTAL WITH TRIANGLE;So;0;ON;;;;;N;;;;;
23C6;DENTISTRY SYMBOL LIGHT VERTICAL AND WAVE;So;0;ON;;;;;N;;;;;
23C7;DENTISTRY SYMBOL LIGHT DOWN AND HORIZONTAL WITH WAVE;So;0;ON;;;;;N;;;;;
23C8;DENTISTRY SYMBOL LIGHT UP AND HORIZONTAL WITH WAVE;So;0;ON;;;;;N;;;;;
23C9;DENTISTRY SYMBOL LIGHT DOWN AND HORIZONTAL;So;0;ON;;;;;N;;;;;
23CA;DENTISTRY SYMBOL LIGHT UP AND HORIZONTAL;So;0;ON;;;;;N;;;;;
23CB;DENTISTRY SYMBOL LIGHT VERTICAL AND TOP LEFT;So;0;ON;;;;;N;;;;;
23CC;DENTISTRY SYMBOL LIGHT VERTICAL AND BOTTOM LEFT;So;0;ON;;;;;N;;;;;
23CD;SQUARE FOOT;So;0;ON;;;;;N;;;;;
23CE;RETURN SYMBOL;So;0;ON;;;;;N;;;;;
23CF;EJECT SYMBOL;So;0;ON;;;;;N;;;;;
23D0;VERTICAL LINE EXTENSION;So;0;ON;;;;;N;;;;;
23D1;METRICAL BREVE;So;0;ON;;;;;N;;;;;
23D2;METRICAL LONG OVER SHORT;So;0;ON;;;;;N;;;;;
23D3;METRICAL SHORT OVER LONG;So;0;ON;;;;;N;;;;;
23D4;METRICAL LONG OVER TWO SHORTS;So;0;ON;;;;;N;;;;;
23D5;METRICAL TWO SHORTS OVER LONG;So;0;ON;;;;;N;;;;;
23D6;METRICAL TWO SHORTS JOINED;So;0;ON;;;;;N;;;;;
23D7;METRICAL TRISEME;So;0;ON;;;;;N;;;;;
23D8;METRICAL TETRASEME;So;0;ON;;;;;N;;;;;
23D9;METRICAL PENTASEME;So;0;ON;;;;;N;;;;;
23DA;EARTH GROUND;So;0;ON;;;;;N;;;;;
23DB;FUSE;So;0;ON;;;;;N;;;;;
23DC;TOP PARENTHESIS;Sm;0;ON;;;;;N;;;;;
23DD;BOTTOM PARENTHESIS;Sm;0;ON;;;;;N;;;;;
23DE;TOP CURLY BRACKET;Sm;0;ON;;;;;N;;;;;
23DF;BOTTOM CURLY BRACKET;Sm;0;ON;;;;;N;;;;;
23E0;TOP TORTOISE SHELL BRACKET;Sm;0;ON;;;;;N;;;;;
23E1;BOTTOM TORTOISE SHELL BRACKET;Sm;0;ON;;;;;N;;;;;
23E2;WHITE TRAPEZIUM;So;0;ON;;;;;N;;;;;
23E3;BENZENE RING WITH CIRCLE;So;0;ON;;;;;N;;;;;
23E4;STRAIGHTNESS;So;0;ON;;;;;N;;;;;
23E5;FLATNESS;So;0;ON;;;;;N;;;;;
23E6;AC CURRENT;So;0;ON;;;;;N;;;;;
23E7;ELECTRICAL INTERSECTION;So;0;ON;;;;;N;;;;;
23E8;DECIMAL EXPONENT SYMBOL;So;0;ON;;;;;N;;;;;
23E9;BLACK RIGHT-POINTING DOUBLE TRIANGLE;So;0;ON;;;;;N;;;;;
23EA;BLACK LEFT-POINTING DOUBLE TRIANGLE;So;0;ON;;;;;N;;;;;
23EB;BLACK UP-POINTING DOUBLE TRIANGLE;So;0;ON;;;;;N;;;;;
23EC;BLACK DOWN-POINTING DOUBLE TRIANGLE;So;0;ON;;;;;N;;;;;
23ED;BLACK RIGHT-POINTING DOUBLE TRIANGLE WITH VERTICAL BAR;So;0;ON;;;;;N;;;;;
23EE;BLACK LEFT-POINTING DOUBLE TRIANGLE WITH VERTICAL BAR;So;0;ON;;;;;N;;;;;
23EF;BLACK RIGHT-POINTING TRIANGLE WITH DOUBLE VERTICAL BAR;So;0;ON;;;;;N;;;;;
23F0;ALARM CLOCK;So;0;ON;;;;;N;;;;;
23F1;STOPWATCH;So;0;ON;;;;;N;;;;;
23F2;TIMER CLOCK;So;0;ON;;;;;N;;;;;
23F3;HOURGLASS WITH FLOWING SAND;So;0;ON;;;;;N;;;;;
23F4;BLACK MEDIUM LEFT-POINTING TRIANGLE;So;0;ON;;;;;N;;;;;
23F5;BLACK MEDIUM RIGHT-POINTING TRIANGLE;So;0;ON;;;;;N;;;;;
23F6;BLACK MEDIUM UP-POINTING TRIANGLE;So;0;ON;;;;;N;;;;;
23F7;BLACK MEDIUM DOWN-POINTING TRIANGLE;So;0;ON;;;;;N;;;;;
23F8;DOUBLE VERTICAL BAR;So;0;ON;;;;;N;;;;;
23F9;BLACK SQUARE FOR STOP;So;0;ON;;;;;N;;;;;
23FA;BLACK CIRCLE FOR RECORD;So;0;ON;;;;;N;;;;;
23FB;POWER SYMBOL;So;0;ON;;;;;N;;;;;
23FC;POWER ON-OFF SYMBOL;So;0;ON;;;;;N;;;;;
23FD;POWER ON SYMBOL;So;0;ON;;;;;N;;;;;
23FE;POWER SLEEP SYMBOL;So;0;ON;;;;;N;;;;;
23FF;OBSERVER EYE SYMBOL;So;0;ON;;;;;N;;;;;
2400;SYMBOL FOR NULL;So;0;ON;;;;;N;GRAPHIC FOR NULL;;;;
2401;SYMBOL FOR START OF HEADING;So;0;ON;;;;;N;GRAPHIC FOR START OF HEADING;;;;
2402;SYMBOL FOR START OF TEXT;So;0;ON;;;;;N;GRAPHIC FOR START OF TEXT;;;;
2403;SYMBOL FOR END OF TEXT;So;0;ON;;;;;N;GRAPHIC FOR END OF TEXT;;;;
2404;SYMBOL FOR END OF TRANSMISSION;So;0;ON;;;;;N;GRAPHIC FOR END OF TRANSMISSION;;;;
2405;SYMBOL FOR ENQUIRY;So;0;ON;;;;;N;GRAPHIC FOR ENQUIRY;;;;
2406;SYMBOL FOR ACKNOWLEDGE;So;0;ON;;;;;N;GRAPHIC FOR ACKNOWLEDGE;;;;
2407;SYMBOL FOR BELL;So;0;ON;;;;;N;GRAPHIC FOR BELL;;;;
2408;SYMBOL FOR BACKSPACE;So;0;ON;;;;;N;GRAPHIC FOR BACKSPACE;;;;
2409;SYMBOL FOR HORIZONTAL TABULATION;So;0;ON;;;;;N;GRAPHIC FOR HORIZONTAL TABULATION;;;;
240A;SYMBOL FOR LINE FEED;So;0;ON;;;;;N;GRAPHIC FOR LINE FEED;;;;
240B;SYMBOL FOR VERTICAL TABULATION;So;0;ON;;;;;N;GRAPHIC FOR VERTICAL TABULATION;;;;
240C;SYMBOL FOR FORM FEED;So;0;ON;;;;;N;GRAPHIC FOR FORM FEED;;;;
240D;SYMBOL FOR CARRIAGE RETURN;So;0;ON;;;;;N;GRAPHIC FOR CARRIAGE RETURN;;;;
240E;SYMBOL FOR SHIFT OUT;So;0;ON;;;;;N;GRAPHIC FOR SHIFT OUT;;;;
240F;SYMBOL FOR SHIFT IN;So;0;ON;;;;;N;GRAPHIC FOR SHIFT IN;;;;
2410;SYMBOL FOR DATA LINK ESCAPE;So;0;ON;;;;;N;GRAPHIC FOR DATA LINK ESCAPE;;;;
2411;SYMBOL FOR DEVICE CONTROL ONE;So;0;ON;;;;;N;GRAPHIC FOR DEVICE CONTROL ONE;;;;
2412;SYMBOL FOR DEVICE CONTROL TWO;So;0;ON;;;;;N;GRAPHIC FOR DEVICE CONTROL TWO;;;;
2413;SYMBOL FOR DEVICE CONTROL THREE;So;0;ON;;;;;N;GRAPHIC FOR DEVICE CONTROL THREE;;;;
2414;SYMBOL FOR DEVICE CONTROL FOUR;So;0;ON;;;;;N;GRAPHIC FOR DEVICE CONTROL FOUR;;;;
2415;SYMBOL FOR NEGATIVE ACKNOWLEDGE;So;0;ON;;;;;N;GRAPHIC FOR NEGATIVE ACKNOWLEDGE;;;;
2416;SYMBOL FOR SYNCHRONOUS IDLE;So;0;ON;;;;;N;GRAPHIC FOR SYNCHRONOUS IDLE;;;;
2417;SYMBOL FOR END OF TRANSMISSION BLOCK;So;0;ON;;;;;N;GRAPHIC FOR END OF TRANSMISSION BLOCK;;;;
2418;SYMBOL FOR CANCEL;So;0;ON;;;;;N;GRAPHIC FOR CANCEL;;;;
2419;SYMBOL FOR END OF MEDIUM;So;0;ON;;;;;N;GRAPHIC FOR END OF MEDIUM;;;;
241A;SYMBOL FOR SUBSTITUTE;So;0;ON;;;;;N;GRAPHIC FOR SUBSTITUTE;;;;
241B;SYMBOL FOR ESCAPE;So;0;ON;;;;;N;GRAPHIC FOR ESCAPE;;;;
241C;SYMBOL FOR FILE SEPARATOR;So;0;ON;;;;;N;GRAPHIC FOR FILE SEPARATOR;;;;
241D;SYMBOL FOR GROUP SEPARATOR;So;0;ON;;;;;N;GRAPHIC FOR GROUP SEPARATOR;;;;
241E;SYMBOL FOR RECORD SEPARATOR;So;0;ON;;;;;N;GRAPHIC FOR RECORD SEPARATOR;;;;
241F;SYMBOL FOR UNIT SEPARATOR;So;0;ON;;;;;N;GRAPHIC FOR UNIT SEPARATOR;;;;
2420;SYMBOL FOR SPACE;So;0;ON;;;;;N;GRAPHIC FOR SPACE;;;;
2421;SYMBOL FOR DELETE;So;0;ON;;;;;N;GRAPHIC FOR DELETE;;;;
2422;BLANK SYMBOL;So;0;ON;;;;;N;BLANK;;;;
2423;OPEN BOX;So;0;ON;;;;;N;;;;;
2424;SYMBOL FOR NEWLINE;So;0;ON;;;;;N;GRAPHIC FOR NEWLINE;;;;
2425;SYMBOL FOR DELETE FORM TWO;So;0;ON;;;;;N;;;;;
2426;SYMBOL FOR SUBSTITUTE FORM TWO;So;0;ON;;;;;N;;;;;
2440;OCR HOOK;So;0;ON;;;;;N;;;;;
2441;OCR CHAIR;So;0;ON;;;;;N;;;;;
2442;OCR FORK;So;0;ON;;;;;N;;;;;
2443;OCR INVERTED FORK;So;0;ON;;;;;N;;;;;
2444;OCR BELT BUCKLE;So;0;ON;;;;;N;;;;;
2445;OCR BOW TIE;So;0;ON;;;;;N;;;;;
2446;OCR BRANCH BANK IDENTIFICATION;So;0;ON;;;;;N;;;;;
2447;OCR AMOUNT OF CHECK;So;0;ON;;;;;N;;;;;
2448;OCR DASH;So;0;ON;;;;;N;;;;;
2449;OCR CUSTOMER ACCOUNT NUMBER;So;0;ON;;;;;N;;;;;
244A;OCR DOUBLE BACKSLASH;So;0;ON;;;;;N;;;;;
2460;CIRCLED DIGIT ONE;No;0;ON;<circle> 0031;;1;1;N;;;;;
2461;CIRCLED DIGIT TWO;No;0;ON;<circle> 0032;;2;2;N;;;;;
2462;CIRCLED DIGIT THREE;No;0;ON;<circle> 0033;;3;3;N;;;;;
2463;CIRCLED DIGIT FOUR;No;0;ON;<circle> 0034;;4;4;N;;;;;
2464;CIRCLED DIGIT FIVE;No;0;ON;<circle> 0035;;5;5;N;;;;;
2465;CIRCLED DIGIT SIX;No;0;ON;<circle> 0036;;6;6;N;;;;;
2466;CIRCLED DIGIT SEVEN;No;0;ON;<circle> 0037;;7;7;N;;;;;
2467;CIRCLED DIGIT EIGHT;No;0;ON;<circle> 0038;;8;8;N;;;;;
2468;CIRCLED DIGIT NINE;No;0;ON;<circle> 0039;;9;9;N;;;;;
2469;CIRCLED NUMBER TEN;No;0;ON;<circle> 0031 0030;;;10;N;;;;;
246A;CIRCLED NUMBER ELEVEN;No;0;ON;<circle> 0031 0031;;;11;N;;;;;
246B;CIRCLED NUMBER TWELVE;No;0;ON;<circle> 0031 0032;;;12;N;;;;;
246C;CIRCLED NUMBER THIRTEEN;No;0;ON;<circle> 0031 0033;;;13;N;;;;;
246D;CIRCLED NUMBER FOURTEEN;No;0;ON;<circle> 0031 0034;;;14;N;;;;;
246E;CIRCLED NUMBER FIFTEEN;No;0;ON;<circle> 0031 0035;;;15;N;;;;;
246F;CIRCLED NUMBER SIXTEEN;No;0;ON;<circle> 0031 0036;;;16;N;;;;;
2470;CIRCLED NUMBER SEVENTEEN;No;0;ON;<circle> 0031 0037;;;17;N;;;;;
2471;CIRCLED NUMBER EIGHTEEN;No;0;ON;<circle> 0031 0038;;;18;N;;;;;
2472;CIRCLED NUMBER NINETEEN;No;0;ON;<circle> 0031 0039;;;19;N;;;;;
2473;CIRCLED NUMBER TWENTY;No;0;ON;<circle> 0032 0030;;;20;N;;;;;
2474;PARENTHESIZED DIGIT ONE;No;0;ON;<compat> 0028 0031 0029;;1;1;N;;;;;
2475;PARENTHESIZED DIGIT TWO;No;0;ON;<compat> 0028 0032 0029;;2;2;N;;;;;
2476;PARENTHESIZED DIGIT THREE;No;0;ON;<compat> 0028 0033 0029;;3;3;N;;;;;
2477;PARENTHESIZED DIGIT FOUR;No;0;ON;<compat> 0028 0034 0029;;4;4;N;;;;;
2478;PARENTHESIZED DIGIT FIVE;No;0;ON;<compat> 0028 0035 0029;;5;5;N;;;;;
2479;PARENTHESIZED DIGIT SIX;No;0;ON;<compat> 0028 0036 0029;;6;6;N;;;;;
247A;PARENTHESIZED DIGIT SEVEN;No;0;ON;<compat> 0028 0037 0029;;7;7;N;;;;;
247B;PARENTHESIZED DIGIT EIGHT;No;0;ON;<compat> 0028 0038 0029;;8;8;N;;;;;
247C;PARENTHESIZED DIGIT NINE;No;0;ON;<compat> 0028 0039 0029;;9;9;N;;;;;
247D;PARENTHESIZED NUMBER TEN;No;0;ON;<compat> 0028 0031 0030 0029;;;10;N;;;;;
247E;PARENTHESIZED NUMBER ELEVEN;No;0;ON;<compat> 0028 0031 0031 0029;;;11;N;;;;;
247F;PARENTHESIZED NUMBER TWELVE;No;0;ON;<compat> 0028 0031 0032 0029;;;12;N;;;;;
2480;PARENTHESIZED NUMBER THIRTEEN;No;0;ON;<compat> 0028 0031 0033 0029;;;13;N;;;;;
2481;PARENTHESIZED NUMBER FOURTEEN;No;0;ON;<compat> 0028 0031 0034 0029;;;14;N;;;;;
2482;PARENTHESIZED NUMBER FIFTEEN;No;0;ON;<compat> 0028 0031 0035 0029;;;15;N;;;;;
2483;PARENTHESIZED NUMBER SIXTEEN;No;0;ON;<compat> 0028 0031 0036 0029;;;16;N;;;;;
2484;PARENTHESIZED NUMBER SEVENTEEN;No;0;ON;<compat> 0028 0031 0037 0029;;;17;N;;;;;
2485;PARENTHESIZED NUMBER EIGHTEEN;No;0;ON;<compat> 0028 0031 0038 0029;;;18;N;;;;;
2486;PARENTHESIZED NUMBER NINETEEN;No;0;ON;<compat> 0028 0031 0039 0029;;;19;N;;;;;
2487;PARENTHESIZED NUMBER TWENTY;No;0;ON;<compat> 0028 0032 0030 0029;;;20;N;;;;;
2488;DIGIT ONE FULL STOP;No;0;EN;<compat> 0031 002E;;1;1;N;DIGIT ONE PERIOD;;;;
2489;DIGIT TWO FULL STOP;No;0;EN;<compat> 0032 002E;;2;2;N;DIGIT TWO PERIOD;;;;
248A;DIGIT THREE FULL STOP;No;0;EN;<compat> 0033 002E;;3;3;N;DIGIT THREE PERIOD;;;;
248B;DIGIT FOUR FULL STOP;No;0;EN;<compat> 0034 002E;;4;4;N;DIGIT FOUR PERIOD;;;;
248C;DIGIT FIVE FULL STOP;No;0;EN;<compat> 0035 002E;;5;5;N;DIGIT FIVE PERIOD;;;;
248D;DIGIT SIX FULL STOP;No;0;EN;<compat> 0036 002E;;6;6;N;DIGIT SIX PERIOD;;;;
248E;DIGIT SEVEN FULL STOP;No;0;EN;<compat> 0037 002E;;7;7;N;DIGIT SEVEN PERIOD;;;;
248F;DIGIT EIGHT FULL STOP;No;0;EN;<compat> 0038 002E;;8;8;N;DIGIT EIGHT PERIOD;;;;
2490;DIGIT NINE FULL STOP;No;0;EN;<compat> 0039 002E;;9;9;N;DIGIT NINE PERIOD;;;;
2491;NUMBER TEN FULL STOP;No;0;EN;<compat> 0031 0030 002E;;;10;N;NUMBER TEN PERIOD;;;;
2492;NUMBER ELEVEN FULL STOP;No;0;EN;<compat> 0031 0031 002E;;;11;N;NUMBER ELEVEN PERIOD;;;;
2493;NUMBER TWELVE FULL STOP;No;0;EN;<compat> 0031 0032 002E;;;12;N;NUMBER TWELVE PERIOD;;;;
2494;NUMBER THIRTEEN FULL STOP;No;0;EN;<compat> 0031 0033 002E;;;13;N;NUMBER THIRTEEN PERIOD;;;;
2495;NUMBER FOURTEEN FULL STOP;No;0;EN;<compat> 0031 0034 002E;;;14;N;NUMBER FOURTEEN PERIOD;;;;
2496;NUMBER FIFTEEN FULL STOP;No;0;EN;<compat> 0031 0035 002E;;;15;N;NUMBER FIFTEEN PERIOD;;;;
2497;NUMBER SIXTEEN FULL STOP;No;0;EN;<compat> 0031 0036 002E;;;16;N;NUMBER SIXTEEN PERIOD;;;;
2498;NUMBER SEVENTEEN FULL STOP;No;0;EN;<compat> 0031 0037 002E;;;17;N;NUMBER SEVENTEEN PERIOD;;;;
2499;NUMBER EIGHTEEN FULL STOP;No;0;EN;<compat> 0031 0038 002E;;;18;N;NUMBER EIGHTEEN PERIOD;;;;
249A;NUMBER NINETEEN FULL STOP;No;0;EN;<compat> 0031 0039 002E;;;19;N;NUMBER NINETEEN PERIOD;;;;
249B;NUMBER TWENTY FULL STOP;No;0;EN;<compat> 0032 0030 002E;;;20;N;NUMBER TWENTY PERIOD;;;;
249C;PARENTHESIZED LATIN SMALL LETTER A;So;0;L;<compat> 0028 0061 0029;;;;N;;;;;
249D;PARENTHESIZED LATIN SMALL LETTER B;So;0;L;<compat> 0028 0062 0029;;;;N;;;;;
249E;PARENTHESIZED LATIN SMALL LETTER C;So;0;L;<compat> 0028 0063 0029;;;;N;;;;;
249F;PARENTHESIZED LATIN SMALL LETTER D;So;0;L;<compat> 0028 0064 0029;;;;N;;;;;
24A0;PARENTHESIZED LATIN SMALL LETTER E;So;0;L;<compat> 0028 0065 0029;;;;N;;;;;
24A1;PARENTHESIZED LATIN SMALL LETTER F;So;0;L;<compat> 0028 0066 0029;;;;N;;;;;
24A2;PARENTHESIZED LATIN SMALL LETTER G;So;0;L;<compat> 0028 0067 0029;;;;N;;;;;
24A3;PARENTHESIZED LATIN SMALL LETTER H;So;0;L;<compat> 0028 0068 0029;;;;N;;;;;
24A4;PARENTHESIZED LATIN SMALL LETTER I;So;0;L;<compat> 0028 0069 0029;;;;N;;;;;
24A5;PARENTHESIZED LATIN SMALL LETTER J;So;0;L;<compat> 0028 006A 0029;;;;N;;;;;
24A6;PARENTHESIZED LATIN SMALL LETTER K;So;0;L;<compat> 0028 006B 0029;;;;N;;;;;
24A7;PARENTHESIZED LATIN SMALL LETTER L;So;0;L;<compat> 0028 006C 0029;;;;N;;;;;
24A8;PARENTHESIZED LATIN SMALL LETTER M;So;0;L;<compat> 0028 006D 0029;;;;N;;;;;
24A9;PARENTHESIZED LATIN SMALL LETTER N;So;0;L;<compat> 0028 006E 0029;;;;N;;;;;
24AA;PARENTHESIZED LATIN SMALL LETTER O;So;0;L;<compat> 0028 006F 0029;;;;N;;;;;
24AB;PARENTHESIZED LATIN SMALL LETTER P;So;0;L;<compat> 0028 0070 0029;;;;N;;;;;
24AC;PARENTHESIZED LATIN SMALL LETTER Q;So;0;L;<compat> 0028 0071 0029;;;;N;;;;;
24AD;PARENTHESIZED LATIN SMALL LETTER R;So;0;L;<compat> 0028 0072 0029;;;;N;;;;;
24AE;PARENTHESIZED LATIN SMALL LETTER S;So;0;L;<compat> 0028 0073 0029;;;;N;;;;;
24AF;PARENTHESIZED LATIN SMALL LETTER T;So;0;L;<compat> 0028 0074 0029;;;;N;;;;;
24B0;PARENTHESIZED LATIN SMALL LETTER U;So;0;L;<compat> 0028 0075 0029;;;;N;;;;;
24B1;PARENTHESIZED LATIN SMALL LETTER V;So;0;L;<compat> 0028 0076 0029;;;;N;;;;;
24B2;PARENTHESIZED LATIN SMALL LETTER W;So;0;L;<compat> 0028 0077 0029;;;;N;;;;;
24B3;PARENTHESIZED LATIN SMALL LETTER X;So;0;L;<compat> 0028 0078 0029;;;;N;;;;;
24B4;PARENTHESIZED LATIN SMALL LETTER Y;So;0;L;<compat> 0028 0079 0029;;;;N;;;;;
24B5;PARENTHESIZED LATIN SMALL LETTER Z;So;0;L;<compat> 0028 007A 0029;;;;N;;;;;
24B6;CIRCLED LATIN CAPITAL LETTER A;So;0;L;<circle> 0041;;;;N;;;;24D0;
24B7;CIRCLED LATIN CAPITAL LETTER B;So;0;L;<circle> 0042;;;;N;;;;24D1;
24B8;CIRCLED LATIN CAPITAL LETTER C;So;0;L;<circle> 0043;;;;N;;;;24D2;
24B9;CIRCLED LATIN CAPITAL LETTER D;So;0;L;<circle> 0044;;;;N;;;;24D3;
24BA;CIRCLED LATIN CAPITAL LETTER E;So;0;L;<circle> 0045;;;;N;;;;24D4;
24BB;CIRCLED LATIN CAPITAL LETTER F;So;0;L;<circle> 0046;;;;N;;;;24D5;
24BC;CIRCLED LATIN CAPITAL LETTER G;So;0;L;<circle> 0047;;;;N;;;;24D6;
24BD;CIRCLED LATIN CAPITAL LETTER H;So;0;L;<circle> 0048;;;;N;;;;24D7;
24BE;CIRCLED LATIN CAPITAL LETTER I;So;0;L;<circle> 0049;;;;N;;;;24D8;
24BF;CIRCLED LATIN CAPITAL LETTER J;So;0;L;<circle> 004A;;;;N;;;;24D9;
24C0;CIRCLED LATIN CAPITAL LETTER K;So;0;L;<circle> 004B;;;;N;;;;24DA;
24C1;CIRCLED LATIN CAPITAL LETTER L;So;0;L;<circle> 004C;;;;N;;;;24DB;
24C2;CIRCLED LATIN CAPITAL LETTER M;So;0;L;<circle> 004D;;;;N;;;;24DC;
24C3;CIRCLED LATIN CAPITAL LETTER N;So;0;L;<circle> 004E;;;;N;;;;24DD;
24C4;CIRCLED LATIN CAPITAL LETTER O;So;0;L;<circle> 004F;;;;N;;;;24DE;
24C5;CIRCLED LATIN CAPITAL LETTER P;So;0;L;<circle> 0050;;;;N;;;;24DF;
24C6;CIRCLED LATIN CAPITAL LETTER Q;So;0;L;<circle> 0051;;;;N;;;;24E0;
24C7;CIRCLED LATIN CAPITAL LETTER R;So;0;L;<circle> 0052;;;;N;;;;24E1;
24C8;CIRCLED LATIN CAPITAL LETTER S;So;0;L;<circle> 0053;;;;N;;;;24E2;
24C9;CIRCLED LATIN CAPITAL LETTER T;So;0;L;<circle> 0054;;;;N;;;;24E3;
24CA;CIRCLED LATIN CAPITAL LETTER U;So;0;L;<circle> 0055;;;;N;;;;24E4;
24CB;CIRCLED LATIN CAPITAL LETTER V;So;0;L;<circle> 0056;;;;N;;;;24E5;
24CC;CIRCLED LATIN CAPITAL LETTER W;So;0;L;<circle> 0057;;;;N;;;;24E6;
24CD;CIRCLED LATIN CAPITAL LETTER X;So;0;L;<circle> 0058;;;;N;;;;24E7;
24CE;CIRCLED LATIN CAPITAL LETTER Y;So;0;L;<circle> 0059;;;;N;;;;24E8;
24CF;CIRCLED LATIN CAPITAL LETTER Z;So;0;L;<circle> 005A;;;;N;;;;24E9;
24D0;CIRCLED LATIN SMALL LETTER A;So;0;L;<circle> 0061;;;;N;;;24B6;;24B6
24D1;CIRCLED LATIN SMALL LETTER B;So;0;L;<circle> 0062;;;;N;;;24B7;;24B7
24D2;CIRCLED LATIN SMALL LETTER C;So;0;L;<circle> 0063;;;;N;;;24B8;;24B8
24D3;CIRCLED LATIN SMALL LETTER D;So;0;L;<circle> 0064;;;;N;;;24B9;;24B9
24D4;CIRCLED LATIN SMALL LETTER E;So;0;L;<circle> 0065;;;;N;;;24BA;;24BA
24D5;CIRCLED LATIN SMALL LETTER F;So;0;L;<circle> 0066;;;;N;;;24BB;;24BB
24D6;CIRCLED LATIN SMALL LETTER G;So;0;L;<circle> 0067;;;;N;;;24BC;;24BC
24D7;CIRCLED LATIN SMALL LETTER H;So;0;L;<circle> 0068;;;;N;;;24BD;;24BD
24D8;CIRCLED LATIN SMALL LETTER I;So;0;L;<circle> 0069;;;;N;;;24BE;;24BE
24D9;CIRCLED LATIN SMALL LETTER J;So;0;L;<circle> 006A;;;;N;;;24BF;;24BF
24DA;CIRCLED LATIN SMALL LETTER K;So;0;L;<circle> 006B;;;;N;;;24C0;;24C0
24DB;CIRCLED LATIN SMALL LETTER L;So;0;L;<circle> 006C;;;;N;;;24C1;;24C1
24DC;CIRCLED LATIN SMALL LETTER M;So;0;L;<circle> 006D;;;;N;;;24C2;;24C2
24DD;CIRCLED LATIN SMALL LETTER N;So;0;L;<circle> 006E;;;;N;;;24C3;;24C3
24DE;CIRCLED LATIN SMALL LETTER O;So;0;L;<circle> 006F;;;;N;;;24C4;;24C4
24DF;CIRCLED LATIN SMALL LETTER P;So;0;L;<circle> 0070;;;;N;;;24C5;;24C5
24E0;CIRCLED LATIN SMALL LETTER Q;So;0;L;<circle> 0071;;;;N;;;24C6;;24C6
24E1;CIRCLED LATIN SMALL LETTER R;So;0;L;<circle> 0072;;;;N;;;24C7;;24C7
24E2;CIRCLED LATIN SMALL LETTER S;So;0;L;<circle> 0073;;;;N;;;24C8;;24C8
24E3;CIRCLED LATIN SMALL LETTER T;So;0;L;<circle> 0074;;;;N;;;24C9;;24C9
24E4;CIRCLED LATIN SMALL LETTER U;So;0;L;<circle> 0075;;;;N;;;24CA;;24CA
24E5;CIRCLED LATIN SMALL LETTER V;So;0;L;<circle> 0076;;;;N;;;24CB;;24CB
24E6;CIRCLED LATIN SMALL LETTER W;So;0;L;<circle> 0077;;;;N;;;24CC;;24CC
24E7;CIRCLED LATIN SMALL LETTER X;So;0;L;<circle> 0078;;;;N;;;24CD;;24CD
24E8;CIRCLED LATIN SMALL LETTER Y;So;0;L;<circle> 0079;;;;N;;;24CE;;24CE
24E9;CIRCLED LATIN SMALL LETTER Z;So;0;L;<circle> 007A;;;;N;;;24CF;;24CF
24EA;CIRCLED DIGIT ZERO;No;0;ON;<circle> 0030;;0;0;N;;;;;
24EB;NEGATIVE CIRCLED NUMBER ELEVEN;No;0;ON;;;;11;N;;;;;
24EC;NEGATIVE CIRCLED NUMBER TWELVE;No;0;ON;;;;12;N;;;;;
24ED;NEGATIVE CIRCLED NUMBER THIRTEEN;No;0;ON;;;;13;N;;;;;
24EE;NEGATIVE CIRCLED NUMBER FOURTEEN;No;0;ON;;;;14;N;;;;;
24EF;NEGATIVE CIRCLED NUMBER FIFTEEN;No;0;ON;;;;15;N;;;;;
24F0;NEGATIVE CIRCLED NUMBER SIXTEEN;No;0;ON;;;;16;N;;;;;
24F1;NEGATIVE CIRCLED NUMBER SEVENTEEN;No;0;ON;;;;17;N;;;;;
24F2;NEGATIVE CIRCLED NUMBER EIGHTEEN;No;0;ON;;;;18;N;;;;;
24F3;NEGATIVE CIRCLED NUMBER NINETEEN;No;0;ON;;;;19;N;;;;;
24F4;NEGATIVE CIRCLED NUMBER TWENTY;No;0;ON;;;;20;N;;;;;
24F5;DOUBLE CIRCLED DIGIT ONE;No;0;ON;;;1;1;N;;;;;
24F6;DOUBLE CIRCLED DIGIT TWO;No;0;ON;;;2;2;N;;;;;
24F7;DOUBLE CIRCLED DIGIT THREE;No;0;ON;;;3;3;N;;;;;
24F8;DOUBLE CIRCLED DIGIT FOUR;No;0;ON;;;4;4;N;;;;;
24F9;DOUBLE CIRCLED DIGIT FIVE;No;0;ON;;;5;5;N;;;;;
24FA;DOUBLE CIRCLED DIGIT SIX;No;0;ON;;;6;6;N;;;;;
24FB;DOUBLE CIRCLED DIGIT SEVEN;No;0;ON;;;7;7;N;;;;;
24FC;DOUBLE CIRCLED DIGIT EIGHT;No;0;ON;;;8;8;N;;;;;
24FD;DOUBLE CIRCLED DIGIT NINE;No;0;ON;;;9;9;N;;;;;
24FE;DOUBLE CIRCLED NUMBER TEN;No;0;ON;;;;10;N;;;;;
24FF;NEGATIVE CIRCLED DIGIT ZERO;No;0;ON;;;0;0;N;;;;;
2500;BOX DRAWINGS LIGHT HORIZONTAL;So;0;ON;;;;;N;FORMS LIGHT HORIZONTAL;;;;
2501;BOX DRAWINGS HEAVY HORIZONTAL;So;0;ON;;;;;N;FORMS HEAVY HORIZONTAL;;;;
2502;BOX DRAWINGS LIGHT VERTICAL;So;0;ON;;;;;N;FORMS LIGHT VERTICAL;;;;
2503;BOX DRAWINGS HEAVY VERTICAL;So;0;ON;;;;;N;FORMS HEAVY VERTICAL;;;;
2504;BOX DRAWINGS LIGHT TRIPLE DASH HORIZONTAL;So;0;ON;;;;;N;FORMS LIGHT TRIPLE DASH HORIZONTAL;;;;
2505;BOX DRAWINGS HEAVY TRIPLE DASH HORIZONTAL;So;0;ON;;;;;N;FORMS HEAVY TRIPLE DASH HORIZONTAL;;;;
2506;BOX DRAWINGS LIGHT TRIPLE DASH VERTICAL;So;0;ON;;;;;N;FORMS LIGHT TRIPLE DASH VERTICAL;;;;
2507;BOX DRAWINGS HEAVY TRIPLE DASH VERTICAL;So;0;ON;;;;;N;FORMS HEAVY TRIPLE DASH VERTICAL;;;;
2508;BOX DRAWINGS LIGHT QUADRUPLE DASH HORIZONTAL;So;0;ON;;;;;N;FORMS LIGHT QUADRUPLE DASH HORIZONTAL;;;;
2509;BOX DRAWINGS HEAVY QUADRUPLE DASH HORIZONTAL;So;0;ON;;;;;N;FORMS HEAVY QUADRUPLE DASH HORIZONTAL;;;;
250A;BOX DRAWINGS LIGHT QUADRUPLE DASH VERTICAL;So;0;ON;;;;;N;FORMS LIGHT QUADRUPLE DASH VERTICAL;;;;
250B;BOX DRAWINGS HEAVY QUADRUPLE DASH VERTICAL;So;0;ON;;;;;N;FORMS HEAVY QUADRUPLE DASH VERTICAL;;;;
250C;BOX DRAWINGS LIGHT DOWN AND RIGHT;So;0;ON;;;;;N;FORMS LIGHT DOWN AND RIGHT;;;;
250D;BOX DRAWINGS DOWN LIGHT AND RIGHT HEAVY;So;0;ON;;;;;N;FORMS DOWN LIGHT AND RIGHT HEAVY;;;;
250E;BOX DRAWINGS DOWN HEAVY AND RIGHT LIGHT;So;0;ON;;;;;N;FORMS DOWN HEAVY AND RIGHT LIGHT;;;;
250F;BOX DRAWINGS HEAVY DOWN AND RIGHT;So;0;ON;;;;;N;FORMS HEAVY DOWN AND RIGHT;;;;
2510;BOX DRAWINGS LIGHT DOWN AND LEFT;So;0;ON;;;;;N;FORMS LIGHT DOWN AND LEFT;;;;
2511;BOX DRAWINGS DOWN LIGHT AND LEFT HEAVY;So;0;ON;;;;;N;FORMS DOWN LIGHT AND LEFT HEAVY;;;;
2512;BOX DRAWINGS DOWN HEAVY AND LEFT LIGHT;So;0;ON;;;;;N;FORMS DOWN HEAVY AND LEFT LIGHT;;;;
2513;BOX DRAWINGS HEAVY DOWN AND LEFT;So;0;ON;;;;;N;FORMS HEAVY DOWN AND LEFT;;;;
2514;BOX DRAWINGS LIGHT UP AND RIGHT;So;0;ON;;;;;N;FORMS LIGHT UP AND RIGHT;;;;
2515;BOX DRAWINGS UP LIGHT AND RIGHT HEAVY;So;0;ON;;;;;N;FORMS UP LIGHT AND RIGHT HEAVY;;;;
2516;BOX DRAWINGS UP HEAVY AND RIGHT LIGHT;So;0;ON;;;;;N;FORMS UP HEAVY AND RIGHT LIGHT;;;;
2517;BOX DRAWINGS HEAVY UP AND RIGHT;So;0;ON;;;;;N;FORMS HEAVY UP AND RIGHT;;;;
2518;BOX DRAWINGS LIGHT UP AND LEFT;So;0;ON;;;;;N;FORMS LIGHT UP AND LEFT;;;;
2519;BOX DRAWINGS UP LIGHT AND LEFT HEAVY;So;0;ON;;;;;N;FORMS UP LIGHT AND LEFT HEAVY;;;;
251A;BOX DRAWINGS UP HEAVY AND LEFT LIGHT;So;0;ON;;;;;N;FORMS UP HEAVY AND LEFT LIGHT;;;;
251B;BOX DRAWINGS HEAVY UP AND LEFT;So;0;ON;;;;;N;FORMS HEAVY UP AND LEFT;;;;
251C;BOX DRAWINGS LIGHT VERTICAL AND RIGHT;So;0;ON;;;;;N;FORMS LIGHT VERTICAL AND RIGHT;;;;
251D;BOX DRAWINGS VERTICAL LIGHT AND RIGHT HEAVY;So;0;ON;;;;;N;FORMS VERTICAL LIGHT AND RIGHT HEAVY;;;;
251E;BOX DRAWINGS UP HEAVY AND RIGHT DOWN LIGHT;So;0;ON;;;;;N;FORMS UP HEAVY AND RIGHT DOWN LIGHT;;;;
251F;BOX DRAWINGS DOWN HEAVY AND RIGHT UP LIGHT;So;0;ON;;;;;N;FORMS DOWN HEAVY AND RIGHT UP LIGHT;;;;
2520;BOX DRAWINGS VERTICAL HEAVY AND RIGHT LIGHT;So;0;ON;;;;;N;FORMS VERTICAL HEAVY AND RIGHT LIGHT;;;;
2521;BOX DRAWINGS DOWN LIGHT AND RIGHT UP HEAVY;So;0;ON;;;;;N;FORMS DOWN LIGHT AND RIGHT UP HEAVY;;;;
2522;BOX DRAWINGS UP LIGHT AND RIGHT DOWN HEAVY;So;0;ON;;;;;N;FORMS UP LIGHT AND RIGHT DOWN HEAVY;;;;
2523;BOX DRAWINGS HEAVY VERTICAL AND RIGHT;So;0;ON;;;;;N;FORMS HEAVY VERTICAL AND RIGHT;;;;
2524;BOX DRAWINGS LIGHT VERTICAL AND LEFT;So;0;ON;;;;;N;FORMS LIGHT VERTICAL AND LEFT;;;;
2525;BOX DRAWINGS VERTICAL LIGHT AND LEFT HEAVY;So;0;ON;;;;;N;FORMS VERTICAL LIGHT AND LEFT HEAVY;;;;
2526;BOX DRAWINGS UP HEAVY AND LEFT DOWN LIGHT;So;0;ON;;;;;N;FORMS UP HEAVY AND LEFT DOWN LIGHT;;;;
2527;BOX DRAWINGS DOWN HEAVY AND LEFT UP LIGHT;So;0;ON;;;;;N;FORMS DOWN HEAVY AND LEFT UP LIGHT;;;;
2528;BOX DRAWINGS VERTICAL HEAVY AND LEFT LIGHT;So;0;ON;;;;;N;FORMS VERTICAL HEAVY AND LEFT LIGHT;;;;
2529;BOX DRAWINGS DOWN LIGHT AND LEFT UP HEAVY;So;0;ON;;;;;N;FORMS DOWN LIGHT AND LEFT UP HEAVY;;;;
252A;BOX DRAWINGS UP LIGHT AND LEFT DOWN HEAVY;So;0;ON;;;;;N;FORMS UP LIGHT AND LEFT DOWN HEAVY;;;;
252B;BOX DRAWINGS HEAVY VERTICAL AND LEFT;So;0;ON;;;;;N;FORMS HEAVY VERTICAL AND LEFT;;;;
252C;BOX DRAWINGS LIGHT DOWN AND HORIZONTAL;So;0;ON;;;;;N;FORMS LIGHT DOWN AND HORIZONTAL;;;;
252D;BOX DRAWINGS LEFT HEAVY AND RIGHT DOWN LIGHT;So;0;ON;;;;;N;FORMS LEFT HEAVY AND RIGHT DOWN LIGHT;;;;
252E;BOX DRAWINGS RIGHT HEAVY AND LEFT DOWN LIGHT;So;0;ON;;;;;N;FORMS RIGHT HEAVY AND LEFT DOWN LIGHT;;;;
252F;BOX DRAWINGS DOWN LIGHT AND HORIZONTAL HEAVY;So;0;ON;;;;;N;FORMS DOWN LIGHT AND HORIZONTAL HEAVY;;;;
2530;BOX DRAWINGS DOWN HEAVY AND HORIZONTAL LIGHT;So;0;ON;;;;;N;FORMS DOWN HEAVY AND HORIZONTAL LIGHT;;;;
2531;BOX DRAWINGS RIGHT LIGHT AND LEFT DOWN HEAVY;So;0;ON;;;;;N;FORMS RIGHT LIGHT AND LEFT DOWN HEAVY;;;;
2532;BOX DRAWINGS LEFT LIGHT AND RIGHT DOWN HEAVY;So;0;ON;;;;;N;FORMS LEFT LIGHT AND RIGHT DOWN HEAVY;;;;
2533;BOX DRAWINGS HEAVY DOWN AND HORIZONTAL;So;0;ON;;;;;N;FORMS HEAVY DOWN AND HORIZONTAL;;;;
2534;BOX DRAWINGS LIGHT UP AND HORIZONTAL;So;0;ON;;;;;N;FORMS LIGHT UP AND HORIZONTAL;;;;
2535;BOX DRAWINGS LEFT HEAVY AND RIGHT UP LIGHT;So;0;ON;;;;;N;FORMS LEFT HEAVY AND RIGHT UP LIGHT;;;;
2536;BOX DRAWINGS RIGHT HEAVY AND LEFT UP LIGHT;So;0;ON;;;;;N;FORMS RIGHT HEAVY AND LEFT UP LIGHT;;;;
2537;BOX DRAWINGS UP LIGHT AND HORIZONTAL HEAVY;So;0;ON;;;;;N;FORMS UP LIGHT AND HORIZONTAL HEAVY;;;;
2538;BOX DRAWINGS UP HEAVY AND HORIZONTAL LIGHT;So;0;ON;;;;;N;FORMS UP HEAVY AND HORIZONTAL LIGHT;;;;
2539;BOX DRAWINGS RIGHT LIGHT AND LEFT UP HEAVY;So;0;ON;;;;;N;FORMS RIGHT LIGHT AND LEFT UP HEAVY;;;;
253A;BOX DRAWINGS LEFT LIGHT AND RIGHT UP HEAVY;So;0;ON;;;;;N;FORMS LEFT LIGHT AND RIGHT UP HEAVY;;;;
253B;BOX DRAWINGS HEAVY UP AND HORIZONTAL;So;0;ON;;;;;N;FORMS HEAVY UP AND HORIZONTAL;;;;
253C;BOX DRAWINGS LIGHT VERTICAL AND HORIZONTAL;So;0;ON;;;;;N;FORMS LIGHT VERTICAL AND HORIZONTAL;;;;
253D;BOX DRAWINGS LEFT HEAVY AND RIGHT VERTICAL LIGHT;So;0;ON;;;;;N;FORMS LEFT HEAVY AND RIGHT VERTICAL LIGHT;;;;
253E;BOX DRAWINGS RIGHT HEAVY AND LEFT VERTICAL LIGHT;So;0;ON;;;;;N;FORMS RIGHT HEAVY AND LEFT VERTICAL LIGHT;;;;
253F;BOX DRAWINGS VERTICAL LIGHT AND HORIZONTAL HEAVY;So;0;ON;;;;;N;FORMS VERTICAL LIGHT AND HORIZONTAL HEAVY;;;;
2540;BOX DRAWINGS UP HEAVY AND DOWN HORIZONTAL LIGHT;So;0;ON;;;;;N;FORMS UP HEAVY AND DOWN HORIZONTAL LIGHT;;;;
2541;BOX DRAWINGS DOWN HEAVY AND UP HORIZONTAL LIGHT;So;0;ON;;;;;N;FORMS DOWN HEAVY AND UP HORIZONTAL LIGHT;;;;
2542;BOX DRAWINGS VERTICAL HEAVY AND HORIZONTAL LIGHT;So;0;ON;;;;;N;FORMS VERTICAL HEAVY AND HORIZONTAL LIGHT;;;;
2543;BOX DRAWINGS LEFT UP HEAVY AND RIGHT DOWN LIGHT;So;0;ON;;;;;N;FORMS LEFT UP HEAVY AND RIGHT DOWN LIGHT;;;;
2544;BOX DRAWINGS RIGHT UP HEAVY AND LEFT DOWN LIGHT;So;0;ON;;;;;N;FORMS RIGHT UP HEAVY AND LEFT DOWN LIGHT;;;;
2545;BOX DRAWINGS LEFT DOWN HEAVY AND RIGHT UP LIGHT;So;0;ON;;;;;N;FORMS LEFT DOWN HEAVY AND RIGHT UP LIGHT;;;;
2546;BOX DRAWINGS RIGHT DOWN HEAVY AND LEFT UP LIGHT;So;0;ON;;;;;N;FORMS RIGHT DOWN HEAVY AND LEFT UP LIGHT;;;;
2547;BOX DRAWINGS DOWN LIGHT AND UP HORIZONTAL HEAVY;So;0;ON;;;;;N;FORMS DOWN LIGHT AND UP HORIZONTAL HEAVY;;;;
2548;BOX DRAWINGS UP LIGHT AND DOWN HORIZONTAL HEAVY;So;0;ON;;;;;N;FORMS UP LIGHT AND DOWN HORIZONTAL HEAVY;;;;
2549;BOX DRAWINGS RIGHT LIGHT AND LEFT VERTICAL HEAVY;So;0;ON;;;;;N;FORMS RIGHT LIGHT AND LEFT VERTICAL HEAVY;;;;
254A;BOX DRAWINGS LEFT LIGHT AND RIGHT VERTICAL HEAVY;So;0;ON;;;;;N;FORMS LEFT LIGHT AND RIGHT VERTICAL HEAVY;;;;
254B;BOX DRAWINGS HEAVY VERTICAL AND HORIZONTAL;So;0;ON;;;;;N;FORMS HEAVY VERTICAL AND HORIZONTAL;;;;
254C;BOX DRAWINGS LIGHT DOUBLE DASH HORIZONTAL;So;0;ON;;;;;N;FORMS LIGHT DOUBLE DASH HORIZONTAL;;;;
254D;BOX DRAWINGS HEAVY DOUBLE DASH HORIZONTAL;So;0;ON;;;;;N;FORMS HEAVY DOUBLE DASH HORIZONTAL;;;;
254E;BOX DRAWINGS LIGHT DOUBLE DASH VERTICAL;So;0;ON;;;;;N;FORMS LIGHT DOUBLE DASH VERTICAL;;;;
254F;BOX DRAWINGS HEAVY DOUBLE DASH VERTICAL;So;0;ON;;;;;N;FORMS HEAVY DOUBLE DASH VERTICAL;;;;
2550;BOX DRAWINGS DOUBLE HORIZONTAL;So;0;ON;;;;;N;FORMS DOUBLE HORIZONTAL;;;;
2551;BOX DRAWINGS DOUBLE VERTICAL;So;0;ON;;;;;N;FORMS DOUBLE VERTICAL;;;;
2552;BOX DRAWINGS DOWN SINGLE AND RIGHT DOUBLE;So;0;ON;;;;;N;FORMS DOWN SINGLE AND RIGHT DOUBLE;;;;
2553;BOX DRAWINGS DOWN DOUBLE AND RIGHT SINGLE;So;0;ON;;;;;N;FORMS DOWN DOUBLE AND RIGHT SINGLE;;;;
2554;BOX DRAWINGS DOUBLE DOWN AND RIGHT;So;0;ON;;;;;N;FORMS DOUBLE DOWN AND RIGHT;;;;
2555;BOX DRAWINGS DOWN SINGLE AND LEFT DOUBLE;So;0;ON;;;;;N;FORMS DOWN SINGLE AND LEFT DOUBLE;;;;
2556;BOX DRAWINGS DOWN DOUBLE AND LEFT SINGLE;So;0;ON;;;;;N;FORMS DOWN DOUBLE AND LEFT SINGLE;;;;
2557;BOX DRAWINGS DOUBLE DOWN AND LEFT;So;0;ON;;;;;N;FORMS DOUBLE DOWN AND LEFT;;;;
2558;BOX DRAWINGS UP SINGLE AND RIGHT DOUBLE;So;0;ON;;;;;N;FORMS UP SINGLE AND RIGHT DOUBLE;;;;
2559;BOX DRAWINGS UP DOUBLE AND RIGHT SINGLE;So;0;ON;;;;;N;FORMS UP DOUBLE AND RIGHT SINGLE;;;;
255A;BOX DRAWINGS DOUBLE UP AND RIGHT;So;0;ON;;;;;N;FORMS DOUBLE UP AND RIGHT;;;;
255B;BOX DRAWINGS UP SINGLE AND LEFT DOUBLE;So;0;ON;;;;;N;FORMS UP SINGLE AND LEFT DOUBLE;;;;
255C;BOX DRAWINGS UP DOUBLE AND LEFT SINGLE;So;0;ON;;;;;N;FORMS UP DOUBLE AND LEFT SINGLE;;;;
255D;BOX DRAWINGS DOUBLE UP AND LEFT;So;0;ON;;;;;N;FORMS DOUBLE UP AND LEFT;;;;
255E;BOX DRAWINGS VERTICAL SINGLE AND RIGHT DOUBLE;So;0;ON;;;;;N;FORMS VERTICAL SINGLE AND RIGHT DOUBLE;;;;
255F;BOX DRAWINGS VERTICAL DOUBLE AND RIGHT SINGLE;So;0;ON;;;;;N;FORMS VERTICAL DOUBLE AND RIGHT SINGLE;;;;
2560;BOX DRAWINGS DOUBLE VERTICAL AND RIGHT;So;0;ON;;;;;N;FORMS DOUBLE VERTICAL AND RIGHT;;;;
2561;BOX DRAWINGS VERTICAL SINGLE AND LEFT DOUBLE;So;0;ON;;;;;N;FORMS VERTICAL SINGLE AND LEFT DOUBLE;;;;
2562;BOX DRAWINGS VERTICAL DOUBLE AND LEFT SINGLE;So;0;ON;;;;;N;FORMS VERTICAL DOUBLE AND LEFT SINGLE;;;;
2563;BOX DRAWINGS DOUBLE VERTICAL AND LEFT;So;0;ON;;;;;N;FORMS DOUBLE VERTICAL AND LEFT;;;;
2564;BOX DRAWINGS DOWN SINGLE AND HORIZONTAL DOUBLE;So;0;ON;;;;;N;FORMS DOWN SINGLE AND HORIZONTAL DOUBLE;;;;
2565;BOX DRAWINGS DOWN DOUBLE AND HORIZONTAL SINGLE;So;0;ON;;;;;N;FORMS DOWN DOUBLE AND HORIZONTAL SINGLE;;;;
2566;BOX DRAWINGS DOUBLE DOWN AND HORIZONTAL;So;0;ON;;;;;N;FORMS DOUBLE DOWN AND HORIZONTAL;;;;
2567;BOX DRAWINGS UP SINGLE AND HORIZONTAL DOUBLE;So;0;ON;;;;;N;FORMS UP SINGLE AND HORIZONTAL DOUBLE;;;;
2568;BOX DRAWINGS UP DOUBLE AND HORIZONTAL SINGLE;So;0;ON;;;;;N;FORMS UP DOUBLE AND HORIZONTAL SINGLE;;;;
2569;BOX DRAWINGS DOUBLE UP AND HORIZONTAL;So;0;ON;;;;;N;FORMS DOUBLE UP AND HORIZONTAL;;;;
256A;BOX DRAWINGS VERTICAL SINGLE AND HORIZONTAL DOUBLE;So;0;ON;;;;;N;FORMS VERTICAL SINGLE AND HORIZONTAL DOUBLE;;;;
256B;BOX DRAWINGS VERTICAL DOUBLE AND HORIZONTAL SINGLE;So;0;ON;;;;;N;FORMS VERTICAL DOUBLE AND HORIZONTAL SINGLE;;;;
256C;BOX DRAWINGS DOUBLE VERTICAL AND HORIZONTAL;So;0;ON;;;;;N;FORMS DOUBLE VERTICAL AND HORIZONTAL;;;;
256D;BOX DRAWINGS LIGHT ARC DOWN AND RIGHT;So;0;ON;;;;;N;FORMS LIGHT ARC DOWN AND RIGHT;;;;
256E;BOX DRAWINGS LIGHT ARC DOWN AND LEFT;So;0;ON;;;;;N;FORMS LIGHT ARC DOWN AND LEFT;;;;
256F;BOX DRAWINGS LIGHT ARC UP AND LEFT;So;0;ON;;;;;N;FORMS LIGHT ARC UP AND LEFT;;;;
2570;BOX DRAWINGS LIGHT ARC UP AND RIGHT;So;0;ON;;;;;N;FORMS LIGHT ARC UP AND RIGHT;;;;
2571;BOX DRAWINGS LIGHT DIAGONAL UPPER RIGHT TO LOWER LEFT;So;0;ON;;;;;N;FORMS LIGHT DIAGONAL UPPER RIGHT TO LOWER LEFT;;;;
2572;BOX DRAWINGS LIGHT DIAGONAL UPPER LEFT TO LOWER RIGHT;So;0;ON;;;;;N;FORMS LIGHT DIAGONAL UPPER LEFT TO LOWER RIGHT;;;;
2573;BOX DRAWINGS LIGHT DIAGONAL CROSS;So;0;ON;;;;;N;FORMS LIGHT DIAGONAL CROSS;;;;
2574;BOX DRAWINGS LIGHT LEFT;So;0;ON;;;;;N;FORMS LIGHT LEFT;;;;
2575;BOX DRAWINGS LIGHT UP;So;0;ON;;;;;N;FORMS LIGHT UP;;;;
2576;BOX DRAWINGS LIGHT RIGHT;So;0;ON;;;;;N;FORMS LIGHT RIGHT;;;;
2577;BOX DRAWINGS LIGHT DOWN;So;0;ON;;;;;N;FORMS LIGHT DOWN;;;;
2578;BOX DRAWINGS HEAVY LEFT;So;0;ON;;;;;N;FORMS HEAVY LEFT;;;;
2579;BOX DRAWINGS HEAVY UP;So;0;ON;;;;;N;FORMS HEAVY UP;;;;
257A;BOX DRAWINGS HEAVY RIGHT;So;0;ON;;;;;N;FORMS HEAVY RIGHT;;;;
257B;BOX DRAWINGS HEAVY DOWN;So;0;ON;;;;;N;FORMS HEAVY DOWN;;;;
257C;BOX DRAWINGS LIGHT LEFT AND HEAVY RIGHT;So;0;ON;;;;;N;FORMS LIGHT LEFT AND HEAVY RIGHT;;;;
257D;BOX DRAWINGS LIGHT UP AND HEAVY DOWN;So;0;ON;;;;;N;FORMS LIGHT UP AND HEAVY DOWN;;;;
257E;BOX DRAWINGS HEAVY LEFT AND LIGHT RIGHT;So;0;ON;;;;;N;FORMS HEAVY LEFT AND LIGHT RIGHT;;;;
257F;BOX DRAWINGS HEAVY UP AND LIGHT DOWN;So;0;ON;;;;;N;FORMS HEAVY UP AND LIGHT DOWN;;;;
2580;UPPER HALF BLOCK;So;0;ON;;;;;N;;;;;
2581;LOWER ONE EIGHTH BLOCK;So;0;ON;;;;;N;;;;;
2582;LOWER ONE QUARTER BLOCK;So;0;ON;;;;;N;;;;;
2583;LOWER THREE EIGHTHS BLOCK;So;0;ON;;;;;N;;;;;
2584;LOWER HALF BLOCK;So;0;ON;;;;;N;;;;;
2585;LOWER FIVE EIGHTHS BLOCK;So;0;ON;;;;;N;;;;;
2586;LOWER THREE QUARTERS BLOCK;So;0;ON;;;;;N;LOWER THREE QUARTER BLOCK;;;;
2587;LOWER SEVEN EIGHTHS BLOCK;So;0;ON;;;;;N;;;;;
2588;FULL BLOCK;So;0;ON;;;;;N;;;;;
2589;LEFT SEVEN EIGHTHS BLOCK;So;0;ON;;;;;N;;;;;
258A;LEFT THREE QUARTERS BLOCK;So;0;ON;;;;;N;LEFT THREE QUARTER BLOCK;;;;
258B;LEFT FIVE EIGHTHS BLOCK;So;0;ON;;;;;N;;;;;
258C;LEFT HALF BLOCK;So;0;ON;;;;;N;;;;;
258D;LEFT THREE EIGHTHS BLOCK;So;0;ON;;;;;N;;;;;
258E;LEFT ONE QUARTER BLOCK;So;0;ON;;;;;N;;;;;
258F;LEFT ONE EIGHTH BLOCK;So;0;ON;;;;;N;;;;;
2590;RIGHT HALF BLOCK;So;0;ON;;;;;N;;;;;
2591;LIGHT SHADE;So;0;ON;;;;;N;;;;;
2592;MEDIUM SHADE;So;0;ON;;;;;N;;;;;
2593;DARK SHADE;So;0;ON;;;;;N;;;;;
2594;UPPER ONE EIGHTH BLOCK;So;0;ON;;;;;N;;;;;
2595;RIGHT ONE EIGHTH BLOCK;So;0;ON;;;;;N;;;;;
2596;QUADRANT LOWER LEFT;So;0;ON;;;;;N;;;;;
2597;QUADRANT LOWER RIGHT;So;0;ON;;;;;N;;;;;
2598;QUADRANT UPPER LEFT;So;0;ON;;;;;N;;;;;
2599;QUADRANT UPPER LEFT AND LOWER LEFT AND LOWER RIGHT;So;0;ON;;;;;N;;;;;
259A;QUADRANT UPPER LEFT AND LOWER RIGHT;So;0;ON;;;;;N;;;;;
259B;QUADRANT UPPER LEFT AND UPPER RIGHT AND LOWER LEFT;So;0;ON;;;;;N;;;;;
259C;QUADRANT UPPER LEFT AND UPPER RIGHT AND LOWER RIGHT;So;0;ON;;;;;N;;;;;
259D;QUADRANT UPPER RIGHT;So;0;ON;;;;;N;;;;;
259E;QUADRANT UPPER RIGHT AND LOWER LEFT;So;0;ON;;;;;N;;;;;
259F;QUADRANT UPPER RIGHT AND LOWER LEFT AND LOWER RIGHT;So;0;ON;;;;;N;;;;;
25A0;BLACK SQUARE;So;0;ON;;;;;N;;;;;
25A1;WHITE SQUARE;So;0;ON;;;;;N;;;;;
25A2;WHITE SQUARE WITH ROUNDED CORNERS;So;0;ON;;;;;N;;;;;
25A3;WHITE SQUARE CONTAINING BLACK SMALL SQUARE;So;0;ON;;;;;N;;;;;
25A4;SQUARE WITH HORIZONTAL FILL;So;0;ON;;;;;N;;;;;
25A5;SQUARE WITH VERTICAL FILL;So;0;ON;;;;;N;;;;;
25A6;SQUARE WITH ORTHOGONAL CROSSHATCH FILL;So;0;ON;;;;;N;;;;;
25A7;SQUARE WITH UPPER LEFT TO LOWER RIGHT FILL;So;0;ON;;;;;N;;;;;
25A8;SQUARE WITH UPPER RIGHT TO LOWER LEFT FILL;So;0;ON;;;;;N;;;;;
25A9;SQUARE WITH DIAGONAL CROSSHATCH FILL;So;0;ON;;;;;N;;;;;
25AA;BLACK SMALL SQUARE;So;0;ON;;;;;N;;;;;
25AB;WHITE SMALL SQUARE;So;0;ON;;;;;N;;;;;
25AC;BLACK RECTANGLE;So;0;ON;;;;;N;;;;;
25AD;WHITE RECTANGLE;So;0;ON;;;;;N;;;;;
25AE;BLACK VERTICAL RECTANGLE;So;0;ON;;;;;N;;;;;
25AF;WHITE VERTICAL RECTANGLE;So;0;ON;;;;;N;;;;;
25B0;BLACK PARALLELOGRAM;So;0;ON;;;;;N;;;;;
25B1;WHITE PARALLELOGRAM;So;0;ON;;;;;N;;;;;
25B2;BLACK UP-POINTING TRIANGLE;So;0;ON;;;;;N;BLACK UP POINTING TRIANGLE;;;;
25B3;WHITE UP-POINTING TRIANGLE;So;0;ON;;;;;N;WHITE UP POINTING TRIANGLE;;;;
25B4;BLACK UP-POINTING SMALL TRIANGLE;So;0;ON;;;;;N;BLACK UP POINTING SMALL TRIANGLE;;;;
25B5;WHITE UP-POINTING SMALL TRIANGLE;So;0;ON;;;;;N;WHITE UP POINTING SMALL TRIANGLE;;;;
25B6;BLACK RIGHT-POINTING TRIANGLE;So;0;ON;;;;;N;BLACK RIGHT POINTING TRIANGLE;;;;
25B7;WHITE RIGHT-POINTING TRIANGLE;Sm;0;ON;;;;;N;WHITE RIGHT POINTING TRIANGLE;;;;
25B8;BLACK RIGHT-POINTING SMALL TRIANGLE;So;0;ON;;;;;N;BLACK RIGHT POINTING SMALL TRIANGLE;;;;
25B9;WHITE RIGHT-POINTING SMALL TRIANGLE;So;0;ON;;;;;N;WHITE RIGHT POINTING SMALL TRIANGLE;;;;
25BA;BLACK RIGHT-POINTING POINTER;So;0;ON;;;;;N;BLACK RIGHT POINTING POINTER;;;;
25BB;WHITE RIGHT-POINTING POINTER;So;0;ON;;;;;N;WHITE RIGHT POINTING POINTER;;;;
25BC;BLACK DOWN-POINTING TRIANGLE;So;0;ON;;;;;N;BLACK DOWN POINTING TRIANGLE;;;;
25BD;WHITE DOWN-POINTING TRIANGLE;So;0;ON;;;;;N;WHITE DOWN POINTING TRIANGLE;;;;
25BE;BLACK DOWN-POINTING SMALL TRIANGLE;So;0;ON;;;;;N;BLACK DOWN POINTING SMALL TRIANGLE;;;;
25BF;WHITE DOWN-POINTING SMALL TRIANGLE;So;0;ON;;;;;N;WHITE DOWN POINTING SMALL TRIANGLE;;;;
25C0;BLACK LEFT-POINTING TRIANGLE;So;0;ON;;;;;N;BLACK LEFT POINTING TRIANGLE;;;;
25C1;WHITE LEFT-POINTING TRIANGLE;Sm;0;ON;;;;;N;WHITE LEFT POINTING TRIANGLE;;;;
25C2;BLACK LEFT-POINTING SMALL TRIANGLE;So;0;ON;;;;;N;BLACK LEFT POINTING SMALL TRIANGLE;;;;
25C3;WHITE LEFT-POINTING SMALL TRIANGLE;So;0;ON;;;;;N;WHITE LEFT POINTING SMALL TRIANGLE;;;;
25C4;BLACK LEFT-POINTING POINTER;So;0;ON;;;;;N;BLACK LEFT POINTING POINTER;;;;
25C5;WHITE LEFT-POINTING POINTER;So;0;ON;;;;;N;WHITE LEFT POINTING POINTER;;;;
25C6;BLACK DIAMOND;So;0;ON;;;;;N;;;;;
25C7;WHITE DIAMOND;So;0;ON;;;;;N;;;;;
25C8;WHITE DIAMOND CONTAINING BLACK SMALL DIAMOND;So;0;ON;;;;;N;;;;;
25C9;FISHEYE;So;0;ON;;;;;N;;;;;
25CA;LOZENGE;So;0;ON;;;;;N;;;;;
25CB;WHITE CIRCLE;So;0;ON;;;;;N;;;;;
25CC;DOTTED CIRCLE;So;0;ON;;;;;N;;;;;
25CD;CIRCLE WITH VERTICAL FILL;So;0;ON;;;;;N;;;;;
25CE;BULLSEYE;So;0;ON;;;;;N;;;;;
25CF;BLACK CIRCLE;So;0;ON;;;;;N;;;;;
25D0;CIRCLE WITH LEFT HALF BLACK;So;0;ON;;;;;N;;;;;
25D1;CIRCLE WITH RIGHT HALF BLACK;So;0;ON;;;;;N;;;;;
25D2;CIRCLE WITH LOWER HALF BLACK;So;0;ON;;;;;N;;;;;
25D3;CIRCLE WITH UPPER HALF BLACK;So;0;ON;;;;;N;;;;;
25D4;CIRCLE WITH UPPER RIGHT QUADRANT BLACK;So;0;ON;;;;;N;;;;;
25D5;CIRCLE WITH ALL BUT UPPER LEFT QUADRANT BLACK;So;0;ON;;;;;N;;;;;
25D6;LEFT HALF BLACK CIRCLE;So;0;ON;;;;;N;;;;;
25D7;RIGHT HALF BLACK CIRCLE;So;0;ON;;;;;N;;;;;
25D8;INVERSE BULLET;So;0;ON;;;;;N;;;;;
25D9;INVERSE WHITE CIRCLE;So;0;ON;;;;;N;;;;;
25DA;UPPER HALF INVERSE WHITE CIRCLE;So;0;ON;;;;;N;;;;;
25DB;LOWER HALF INVERSE WHITE CIRCLE;So;0;ON;;;;;N;;;;;
25DC;UPPER LEFT QUADRANT CIRCULAR ARC;So;0;ON;;;;;N;;;;;
25DD;UPPER RIGHT QUADRANT CIRCULAR ARC;So;0;ON;;;;;N;;;;;
25DE;LOWER RIGHT QUADRANT CIRCULAR ARC;So;0;ON;;;;;N;;;;;
25DF;LOWER LEFT QUADRANT CIRCULAR ARC;So;0;ON;;;;;N;;;;;
25E0;UPPER HALF CIRCLE;So;0;ON;;;;;N;;;;;
25E1;LOWER HALF CIRCLE;So;0;ON;;;;;N;;;;;
25E2;BLACK LOWER RIGHT TRIANGLE;So;0;ON;;;;;N;;;;;
25E3;BLACK LOWER LEFT TRIANGLE;So;0;ON;;;;;N;;;;;
25E4;BLACK UPPER LEFT TRIANGLE;So;0;ON;;;;;N;;;;;
25E5;BLACK UPPER RIGHT TRIANGLE;So;0;ON;;;;;N;;;;;
25E6;WHITE BULLET;So;0;ON;;;;;N;;;;;
25E7;SQUARE WITH LEFT HALF BLACK;So;0;ON;;;;;N;;;;;
25E8;SQUARE WITH RIGHT HALF BLACK;So;0;ON;;;;;N;;;;;
25E9;SQUARE WITH UPPER LEFT DIAGONAL HALF BLACK;So;0;ON;;;;;N;;;;;
25EA;SQUARE WITH LOWER RIGHT DIAGONAL HALF BLACK;So;0;ON;;;;;N;;;;;
25EB;WHITE SQUARE WITH VERTICAL BISECTING LINE;So;0;ON;;;;;N;;;;;
25EC;WHITE UP-POINTING TRIANGLE WITH DOT;So;0;ON;;;;;N;WHITE UP POINTING TRIANGLE WITH DOT;;;;
25ED;UP-POINTING TRIANGLE WITH LEFT HALF BLACK;So;0;ON;;;;;N;UP POINTING TRIANGLE WITH LEFT HALF BLACK;;;;
25EE;UP-POINTING TRIANGLE WITH RIGHT HALF BLACK;So;0;ON;;;;;N;UP POINTING TRIANGLE WITH RIGHT HALF BLACK;;;;
25EF;LARGE CIRCLE;So;0;ON;;;;;N;;;;;
25F0;WHITE SQUARE WITH UPPER LEFT QUADRANT;So;0;ON;;;;;N;;;;;
25F1;WHITE SQUARE WITH LOWER LEFT QUADRANT;So;0;ON;;;;;N;;;;;
25F2;WHITE SQUARE WITH LOWER RIGHT QUADRANT;So;0;ON;;;;;N;;;;;
25F3;WHITE SQUARE WITH UPPER RIGHT QUADRANT;So;0;ON;;;;;N;;;;;
25F4;WHITE CIRCLE WITH UPPER LEFT QUADRANT;So;0;ON;;;;;N;;;;;
25F5;WHITE CIRCLE WITH LOWER LEFT QUADRANT;So;0;ON;;;;;N;;;;;
25F6;WHITE CIRCLE WITH LOWER RIGHT QUADRANT;So;0;ON;;;;;N;;;;;
25F7;WHITE CIRCLE WITH UPPER RIGHT QUADRANT;So;0;ON;;;;;N;;;;;
25F8;UPPER LEFT TRIANGLE;Sm;0;ON;;;;;N;;;;;
25F9;UPPER RIGHT TRIANGLE;Sm;0;ON;;;;;N;;;;;
25FA;LOWER LEFT TRIANGLE;Sm;0;ON;;;;;N;;;;;
25FB;WHITE MEDIUM SQUARE;Sm;0;ON;;;;;N;;;;;
25FC;BLACK MEDIUM SQUARE;Sm;0;ON;;;;;N;;;;;
25FD;WHITE MEDIUM SMALL SQUARE;Sm;0;ON;;;;;N;;;;;
25FE;BLACK MEDIUM SMALL SQUARE;Sm;0;ON;;;;;N;;;;;
25FF;LOWER RIGHT TRIANGLE;Sm;0;ON;;;;;N;;;;;
2600;BLACK SUN WITH RAYS;So;0;ON;;;;;N;;;;;
2601;CLOUD;So;0;ON;;;;;N;;;;;
2602;UMBRELLA;So;0;ON;;;;;N;;;;;
2603;SNOWMAN;So;0;ON;;;;;N;;;;;
2604;COMET;So;0;ON;;;;;N;;;;;
2605;BLACK STAR;So;0;ON;;;;;N;;;;;
2606;WHITE STAR;So;0;ON;;;;;N;;;;;
2607;LIGHTNING;So;0;ON;;;;;N;;;;;
2608;THUNDERSTORM;So;0;ON;;;;;N;;;;;
2609;SUN;So;0;ON;;;;;N;;;;;
260A;ASCENDING NODE;So;0;ON;;;;;N;;;;;
260B;DESCENDING NODE;So;0;ON;;;;;N;;;;;
260C;CONJUNCTION;So;0;ON;;;;;N;;;;;
260D;OPPOSITION;So;0;ON;;;;;N;;;;;
260E;BLACK TELEPHONE;So;0;ON;;;;;N;;;;;
260F;WHITE TELEPHONE;So;0;ON;;;;;N;;;;;
2610;BALLOT BOX;So;0;ON;;;;;N;;;;;
2611;BALLOT BOX WITH CHECK;So;0;ON;;;;;N;;;;;
2612;BALLOT BOX WITH X;So;0;ON;;;;;N;;;;;
2613;SALTIRE;So;0;ON;;;;;N;;;;;
2614;UMBRELLA WITH RAIN DROPS;So;0;ON;;;;;N;;;;;
2615;HOT BEVERAGE;So;0;ON;;;;;N;;;;;
2616;WHITE SHOGI PIECE;So;0;ON;;;;;N;;;;;
2617;BLACK SHOGI PIECE;So;0;ON;;;;;N;;;;;
2618;SHAMROCK;So;0;ON;;;;;N;;;;;
2619;REVERSED ROTATED FLORAL HEART BULLET;So;0;ON;;;;;N;;;;;
261A;BLACK LEFT POINTING INDEX;So;0;ON;;;;;N;;;;;
261B;BLACK RIGHT POINTING INDEX;So;0;ON;;;;;N;;;;;
261C;WHITE LEFT POINTING INDEX;So;0;ON;;;;;N;;;;;
261D;WHITE UP POINTING INDEX;So;0;ON;;;;;N;;;;;
261E;WHITE RIGHT POINTING INDEX;So;0;ON;;;;;N;;;;;
261F;WHITE DOWN POINTING INDEX;So;0;ON;;;;;N;;;;;
2620;SKULL AND CROSSBONES;So;0;ON;;;;;N;;;;;
2621;CAUTION SIGN;So;0;ON;;;;;N;;;;;
2622;RADIOACTIVE SIGN;So;0;ON;;;;;N;;;;;
2623;BIOHAZARD SIGN;So;0;ON;;;;;N;;;;;
2624;CADUCEUS;So;0;ON;;;;;N;;;;;
2625;ANKH;So;0;ON;;;;;N;;;;;
2626;ORTHODOX CROSS;So;0;ON;;;;;N;;;;;
2627;CHI RHO;So;0;ON;;;;;N;;;;;
2628;CROSS OF LORRAINE;So;0;ON;;;;;N;;;;;
2629;CROSS OF JERUSALEM;So;0;ON;;;;;N;;;;;
262A;STAR AND CRESCENT;So;0;ON;;;;;N;;;;;
262B;FARSI SYMBOL;So;0;ON;;;;;N;SYMBOL OF IRAN;;;;
262C;ADI SHAKTI;So;0;ON;;;;;N;;;;;
262D;HAMMER AND SICKLE;So;0;ON;;;;;N;;;;;
262E;PEACE SYMBOL;So;0;ON;;;;;N;;;;;
262F;YIN YANG;So;0;ON;;;;;N;;;;;
2630;TRIGRAM FOR HEAVEN;So;0;ON;;;;;N;;;;;
2631;TRIGRAM FOR LAKE;So;0;ON;;;;;N;;;;;
2632;TRIGRAM FOR FIRE;So;0;ON;;;;;N;;;;;
2633;TRIGRAM FOR THUNDER;So;0;ON;;;;;N;;;;;
2634;TRIGRAM FOR WIND;So;0;ON;;;;;N;;;;;
2635;TRIGRAM FOR WATER;So;0;ON;;;;;N;;;;;
2636;TRIGRAM FOR MOUNTAIN;So;0;ON;;;;;N;;;;;
2637;TRIGRAM FOR EARTH;So;0;ON;;;;;N;;;;;
2638;WHEEL OF DHARMA;So;0;ON;;;;;N;;;;;
2639;WHITE FROWNING FACE;So;0;ON;;;;;N;;;;;
263A;WHITE SMILING FACE;So;0;ON;;;;;N;;;;;
263B;BLACK SMILING FACE;So;0;ON;;;;;N;;;;;
263C;WHITE SUN WITH RAYS;So;0;ON;;;;;N;;;;;
263D;FIRST QUARTER MOON;So;0;ON;;;;;N;;;;;
263E;LAST QUARTER MOON;So;0;ON;;;;;N;;;;;
263F;MERCURY;So;0;ON;;;;;N;;;;;
2640;FEMALE SIGN;So;0;ON;;;;;N;;;;;
2641;EARTH;So;0;ON;;;;;N;;;;;
2642;MALE SIGN;So;0;ON;;;;;N;;;;;
2643;JUPITER;So;0;ON;;;;;N;;;;;
2644;SATURN;So;0;ON;;;;;N;;;;;
2645;URANUS;So;0;ON;;;;;N;;;;;
2646;NEPTUNE;So;0;ON;;;;;N;;;;;
2647;PLUTO;So;0;ON;;;;;N;;;;;
2648;ARIES;So;0;ON;;;;;N;;;;;
2649;TAURUS;So;0;ON;;;;;N;;;;;
264A;GEMINI;So;0;ON;;;;;N;;;;;
264B;CANCER;So;0;ON;;;;;N;;;;;
264C;LEO;So;0;ON;;;;;N;;;;;
264D;VIRGO;So;0;ON;;;;;N;;;;;
264E;LIBRA;So;0;ON;;;;;N;;;;;
264F;SCORPIUS;So;0;ON;;;;;N;;;;;
2650;SAGITTARIUS;So;0;ON;;;;;N;;;;;
2651;CAPRICORN;So;0;ON;;;;;N;;;;;
2652;AQUARIUS;So;0;ON;;;;;N;;;;;
2653;PISCES;So;0;ON;;;;;N;;;;;
2654;WHITE CHESS KING;So;0;ON;;;;;N;;;;;
2655;WHITE CHESS QUEEN;So;0;ON;;;;;N;;;;;
2656;WHITE CHESS ROOK;So;0;ON;;;;;N;;;;;
2657;WHITE CHESS BISHOP;So;0;ON;;;;;N;;;;;
2658;WHITE CHESS KNIGHT;So;0;ON;;;;;N;;;;;
2659;WHITE CHESS PAWN;So;0;ON;;;;;N;;;;;
265A;BLACK CHESS KING;So;0;ON;;;;;N;;;;;
265B;BLACK CHESS QUEEN;So;0;ON;;;;;N;;;;;
265C;BLACK CHESS ROOK;So;0;ON;;;;;N;;;;;
265D;BLACK CHESS BISHOP;So;0;ON;;;;;N;;;;;
265E;BLACK CHESS KNIGHT;So;0;ON;;;;;N;;;;;
265F;BLACK CHESS PAWN;So;0;ON;;;;;N;;;;;
2660;BLACK SPADE SUIT;So;0;ON;;;;;N;;;;;
2661;WHITE HEART SUIT;So;0;ON;;;;;N;;;;;
2662;WHITE DIAMOND SUIT;So;0;ON;;;;;N;;;;;
2663;BLACK CLUB SUIT;So;0;ON;;;;;N;;;;;
2664;WHITE SPADE SUIT;So;0;ON;;;;;N;;;;;
2665;BLACK HEART SUIT;So;0;ON;;;;;N;;;;;
2666;BLACK DIAMOND SUIT;So;0;ON;;;;;N;;;;;
2667;WHITE CLUB SUIT;So;0;ON;;;;;N;;;;;
2668;HOT SPRINGS;So;0;ON;;;;;N;;;;;
2669;QUARTER NOTE;So;0;ON;;;;;N;;;;;
266A;EIGHTH NOTE;So;0;ON;;;;;N;;;;;
266B;BEAMED EIGHTH NOTES;So;0;ON;;;;;N;BARRED EIGHTH NOTES;;;;
266C;BEAMED SIXTEENTH NOTES;So;0;ON;;;;;N;BARRED SIXTEENTH NOTES;;;;
266D;MUSIC FLAT SIGN;So;0;ON;;;;;N;FLAT;;;;
266E;MUSIC NATURAL SIGN;So;0;ON;;;;;N;NATURAL;;;;
266F;MUSIC SHARP SIGN;Sm;0;ON;;;;;N;SHARP;;;;
2670;WEST SYRIAC CROSS;So;0;ON;;;;;N;;;;;
2671;EAST SYRIAC CROSS;So;0;ON;;;;;N;;;;;
2672;UNIVERSAL RECYCLING SYMBOL;So;0;ON;;;;;N;;;;;
2673;RECYCLING SYMBOL FOR TYPE-1 PLASTICS;So;0;ON;;;;;N;;;;;
2674;RECYCLING SYMBOL FOR TYPE-2 PLASTICS;So;0;ON;;;;;N;;;;;
2675;RECYCLING SYMBOL FOR TYPE-3 PLASTICS;So;0;ON;;;;;N;;;;;
2676;RECYCLING SYMBOL FOR TYPE-4 PLASTICS;So;0;ON;;;;;N;;;;;
2677;RECYCLING SYMBOL FOR TYPE-5 PLASTICS;So;0;ON;;;;;N;;;;;
2678;RECYCLING SYMBOL FOR TYPE-6 PLASTICS;So;0;ON;;;;;N;;;;;
2679;RECYCLING SYMBOL FOR TYPE-7 PLASTICS;So;0;ON;;;;;N;;;;;
267A;RECYCLING SYMBOL FOR GENERIC MATERIALS;So;0;ON;;;;;N;;;;;
267B;BLACK UNIVERSAL RECYCLING SYMBOL;So;0;ON;;;;;N;;;;;
267C;RECYCLED PAPER SYMBOL;So;0;ON;;;;;N;;;;;
267D;PARTIALLY-RECYCLED PAPER SYMBOL;So;0;ON;;;;;N;;;;;
267E;PERMANENT PAPER SIGN;So;0;ON;;;;;N;;;;;
267F;WHEELCHAIR SYMBOL;So;0;ON;;;;;N;;;;;
2680;DIE FACE-1;So;0;ON;;;;;N;;;;;
2681;DIE FACE-2;So;0;ON;;;;;N;;;;;
2682;DIE FACE-3;So;0;ON;;;;;N;;;;;
2683;DIE FACE-4;So;0;ON;;;;;N;;;;;
2684;DIE FACE-5;So;0;ON;;;;;N;;;;;
2685;DIE FACE-6;So;0;ON;;;;;N;;;;;
2686;WHITE CIRCLE WITH DOT RIGHT;So;0;ON;;;;;N;;;;;
2687;WHITE CIRCLE WITH TWO DOTS;So;0;ON;;;;;N;;;;;
2688;BLACK CIRCLE WITH WHITE DOT RIGHT;So;0;ON;;;;;N;;;;;
2689;BLACK CIRCLE WITH TWO WHITE DOTS;So;0;ON;;;;;N;;;;;
268A;MONOGRAM FOR YANG;So;0;ON;;;;;N;;;;;
268B;MONOGRAM FOR YIN;So;0;ON;;;;;N;;;;;
268C;DIGRAM FOR GREATER YANG;So;0;ON;;;;;N;;;;;
268D;DIGRAM FOR LESSER YIN;So;0;ON;;;;;N;;;;;
268E;DIGRAM FOR LESSER YANG;So;0;ON;;;;;N;;;;;
268F;DIGRAM FOR GREATER YIN;So;0;ON;;;;;N;;;;;
2690;WHITE FLAG;So;0;ON;;;;;N;;;;;
2691;BLACK FLAG;So;0;ON;;;;;N;;;;;
2692;HAMMER AND PICK;So;0;ON;;;;;N;;;;;
2693;ANCHOR;So;0;ON;;;;;N;;;;;
2694;CROSSED SWORDS;So;0;ON;;;;;N;;;;;
2695;STAFF OF AESCULAPIUS;So;0;ON;;;;;N;;;;;
2696;SCALES;So;0;ON;;;;;N;;;;;
2697;ALEMBIC;So;0;ON;;;;;N;;;;;
2698;FLOWER;So;0;ON;;;;;N;;;;;
2699;GEAR;So;0;ON;;;;;N;;;;;
269A;STAFF OF HERMES;So;0;ON;;;;;N;;;;;
269B;ATOM SYMBOL;So;0;ON;;;;;N;;;;;
269C;FLEUR-DE-LIS;So;0;ON;;;;;N;;;;;
269D;OUTLINED WHITE STAR;So;0;ON;;;;;N;;;;;
269E;THREE LINES CONVERGING RIGHT;So;0;ON;;;;;N;;;;;
269F;THREE LINES CONVERGING LEFT;So;0;ON;;;;;N;;;;;
26A0;WARNING SIGN;So;0;ON;;;;;N;;;;;
26A1;HIGH VOLTAGE SIGN;So;0;ON;;;;;N;;;;;
26A2;DOUBLED FEMALE SIGN;So;0;ON;;;;;N;;;;;
26A3;DOUBLED MALE SIGN;So;0;ON;;;;;N;;;;;
26A4;INTERLOCKED FEMALE AND MALE SIGN;So;0;ON;;;;;N;;;;;
26A5;MALE AND FEMALE SIGN;So;0;ON;;;;;N;;;;;
26A6;MALE WITH STROKE SIGN;So;0;ON;;;;;N;;;;;
26A7;MALE WITH STROKE AND MALE AND FEMALE SIGN;So;0;ON;;;;;N;;;;;
26A8;VERTICAL MALE WITH STROKE SIGN;So;0;ON;;;;;N;;;;;
26A9;HORIZONTAL MALE WITH STROKE SIGN;So;0;ON;;;;;N;;;;;
26AA;MEDIUM WHITE CIRCLE;So;0;ON;;;;;N;;;;;
26AB;MEDIUM BLACK CIRCLE;So;0;ON;;;;;N;;;;;
26AC;MEDIUM SMALL WHITE CIRCLE;So;0;L;;;;;N;;;;;
26AD;MARRIAGE SYMBOL;So;0;ON;;;;;N;;;;;
26AE;DIVORCE SYMBOL;So;0;ON;;;;;N;;;;;
26AF;UNMARRIED PARTNERSHIP SYMBOL;So;0;ON;;;;;N;;;;;
26B0;COFFIN;So;0;ON;;;;;N;;;;;
26B1;FUNERAL URN;So;0;ON;;;;;N;;;;;
26B2;NEUTER;So;0;ON;;;;;N;;;;;
26B3;CERES;So;0;ON;;;;;N;;;;;
26B4;PALLAS;So;0;ON;;;;;N;;;;;
26B5;JUNO;So;0;ON;;;;;N;;;;;
26B6;VESTA;So;0;ON;;;;;N;;;;;
26B7;CHIRON;So;0;ON;;;;;N;;;;;
26B8;BLACK MOON LILITH;So;0;ON;;;;;N;;;;;
26B9;SEXTILE;So;0;ON;;;;;N;;;;;
26BA;SEMISEXTILE;So;0;ON;;;;;N;;;;;
26BB;QUINCUNX;So;0;ON;;;;;N;;;;;
26BC;SESQUIQUADRATE;So;0;ON;;;;;N;;;;;
26BD;SOCCER BALL;So;0;ON;;;;;N;;;;;
26BE;BASEBALL;So;0;ON;;;;;N;;;;;
26BF;SQUARED KEY;So;0;ON;;;;;N;;;;;
26C0;WHITE DRAUGHTS MAN;So;0;ON;;;;;N;;;;;
26C1;WHITE DRAUGHTS KING;So;0;ON;;;;;N;;;;;
26C2;BLACK DRAUGHTS MAN;So;0;ON;;;;;N;;;;;
26C3;BLACK DRAUGHTS KING;So;0;ON;;;;;N;;;;;
26C4;SNOWMAN WITHOUT SNOW;So;0;ON;;;;;N;;;;;
26C5;SUN BEHIND CLOUD;So;0;ON;;;;;N;;;;;
26C6;RAIN;So;0;ON;;;;;N;;;;;
26C7;BLACK SNOWMAN;So;0;ON;;;;;N;;;;;
26C8;THUNDER CLOUD AND RAIN;So;0;ON;;;;;N;;;;;
26C9;TURNED WHITE SHOGI PIECE;So;0;ON;;;;;N;;;;;
26CA;TURNED BLACK SHOGI PIECE;So;0;ON;;;;;N;;;;;
26CB;WHITE DIAMOND IN SQUARE;So;0;ON;;;;;N;;;;;
26CC;CROSSING LANES;So;0;ON;;;;;N;;;;;
26CD;DISABLED CAR;So;0;ON;;;;;N;;;;;
26CE;OPHIUCHUS;So;0;ON;;;;;N;;;;;
26CF;PICK;So;0;ON;;;;;N;;;;;
26D0;CAR SLIDING;So;0;ON;;;;;N;;;;;
26D1;HELMET WITH WHITE CROSS;So;0;ON;;;;;N;;;;;
26D2;CIRCLED CROSSING LANES;So;0;ON;;;;;N;;;;;
26D3;CHAINS;So;0;ON;;;;;N;;;;;
26D4;NO ENTRY;So;0;ON;;;;;N;;;;;
26D5;ALTERNATE ONE-WAY LEFT WAY TRAFFIC;So;0;ON;;;;;N;;;;;
26D6;BLACK TWO-WAY LEFT WAY TRAFFIC;So;0;ON;;;;;N;;;;;
26D7;WHITE TWO-WAY LEFT WAY TRAFFIC;So;0;ON;;;;;N;;;;;
26D8;BLACK LEFT LANE MERGE;So;0;ON;;;;;N;;;;;
26D9;WHITE LEFT LANE MERGE;So;0;ON;;;;;N;;;;;
26DA;DRIVE SLOW SIGN;So;0;ON;;;;;N;;;;;
26DB;HEAVY WHITE DOWN-POINTING TRIANGLE;So;0;ON;;;;;N;;;;;
26DC;LEFT CLOSED ENTRY;So;0;ON;;;;;N;;;;;
26DD;SQUARED SALTIRE;So;0;ON;;;;;N;;;;;
26DE;FALLING DIAGONAL IN WHITE CIRCLE IN BLACK SQUARE;So;0;ON;;;;;N;;;;;
26DF;BLACK TRUCK;So;0;ON;;;;;N;;;;;
26E0;RESTRICTED LEFT ENTRY-1;So;0;ON;;;;;N;;;;;
26E1;RESTRICTED LEFT ENTRY-2;So;0;ON;;;;;N;;;;;
26E2;ASTRONOMICAL SYMBOL FOR URANUS;So;0;ON;;;;;N;;;;;
26E3;HEAVY CIRCLE WITH STROKE AND TWO DOTS ABOVE;So;0;ON;;;;;N;;;;;
26E4;PENTAGRAM;So;0;ON;;;;;N;;;;;
26E5;RIGHT-HANDED INTERLACED PENTAGRAM;So;0;ON;;;;;N;;;;;
26E6;LEFT-HANDED INTERLACED PENTAGRAM;So;0;ON;;;;;N;;;;;
26E7;INVERTED PENTAGRAM;So;0;ON;;;;;N;;;;;
26E8;BLACK CROSS ON SHIELD;So;0;ON;;;;;N;;;;;
26E9;SHINTO SHRINE;So;0;ON;;;;;N;;;;;
26EA;CHURCH;So;0;ON;;;;;N;;;;;
26EB;CASTLE;So;0;ON;;;;;N;;;;;
26EC;HISTORIC SITE;So;0;ON;;;;;N;;;;;
26ED;GEAR WITHOUT HUB;So;0;ON;;;;;N;;;;;
26EE;GEAR WITH HANDLES;So;0;ON;;;;;N;;;;;
26EF;MAP SYMBOL FOR LIGHTHOUSE;So;0;ON;;;;;N;;;;;
26F0;MOUNTAIN;So;0;ON;;;;;N;;;;;
26F1;UMBRELLA ON GROUND;So;0;ON;;;;;N;;;;;
26F2;FOUNTAIN;So;0;ON;;;;;N;;;;;
26F3;FLAG IN HOLE;So;0;ON;;;;;N;;;;;
26F4;FERRY;So;0;ON;;;;;N;;;;;
26F5;SAILBOAT;So;0;ON;;;;;N;;;;;
26F6;SQUARE FOUR CORNERS;So;0;ON;;;;;N;;;;;
26F7;SKIER;So;0;ON;;;;;N;;;;;
26F8;ICE SKATE;So;0;ON;;;;;N;;;;;
26F9;PERSON WITH BALL;So;0;ON;;;;;N;;;;;
26FA;TENT;So;0;ON;;;;;N;;;;;
26FB;JAPANESE BANK SYMBOL;So;0;ON;;;;;N;;;;;
26FC;HEADSTONE GRAVEYARD SYMBOL;So;0;ON;;;;;N;;;;;
26FD;FUEL PUMP;So;0;ON;;;;;N;;;;;
26FE;CUP ON BLACK SQUARE;So;0;ON;;;;;N;;;;;
26FF;WHITE FLAG WITH HORIZONTAL MIDDLE BLACK STRIPE;So;0;ON;;;;;N;;;;;
2700;BLACK SAFETY SCISSORS;So;0;ON;;;;;N;;;;;
2701;UPPER BLADE SCISSORS;So;0;ON;;;;;N;;;;;
2702;BLACK SCISSORS;So;0;ON;;;;;N;;;;;
2703;LOWER BLADE SCISSORS;So;0;ON;;;;;N;;;;;
2704;WHITE SCISSORS;So;0;ON;;;;;N;;;;;
2705;WHITE HEAVY CHECK MARK;So;0;ON;;;;;N;;;;;
2706;TELEPHONE LOCATION SIGN;So;0;ON;;;;;N;;;;;
2707;TAPE DRIVE;So;0;ON;;;;;N;;;;;
2708;AIRPLANE;So;0;ON;;;;;N;;;;;
2709;ENVELOPE;So;0;ON;;;;;N;;;;;
270A;RAISED FIST;So;0;ON;;;;;N;;;;;
270B;RAISED HAND;So;0;ON;;;;;N;;;;;
270C;VICTORY HAND;So;0;ON;;;;;N;;;;;
270D;WRITING HAND;So;0;ON;;;;;N;;;;;
270E;LOWER RIGHT PENCIL;So;0;ON;;;;;N;;;;;
270F;PENCIL;So;0;ON;;;;;N;;;;;
2710;UPPER RIGHT PENCIL;So;0;ON;;;;;N;;;;;
2711;WHITE NIB;So;0;ON;;;;;N;;;;;
2712;BLACK NIB;So;0;ON;;;;;N;;;;;
2713;CHECK MARK;So;0;ON;;;;;N;;;;;
2714;HEAVY CHECK MARK;So;0;ON;;;;;N;;;;;
2715;MULTIPLICATION X;So;0;ON;;;;;N;;;;;
2716;HEAVY MULTIPLICATION X;So;0;ON;;;;;N;;;;;
2717;BALLOT X;So;0;ON;;;;;N;;;;;
2718;HEAVY BALLOT X;So;0;ON;;;;;N;;;;;
2719;OUTLINED GREEK CROSS;So;0;ON;;;;;N;;;;;
271A;HEAVY GREEK CROSS;So;0;ON;;;;;N;;;;;
271B;OPEN CENTRE CROSS;So;0;ON;;;;;N;OPEN CENTER CROSS;;;;
271C;HEAVY OPEN CENTRE CROSS;So;0;ON;;;;;N;HEAVY OPEN CENTER CROSS;;;;
271D;LATIN CROSS;So;0;ON;;;;;N;;;;;
271E;SHADOWED WHITE LATIN CROSS;So;0;ON;;;;;N;;;;;
271F;OUTLINED LATIN CROSS;So;0;ON;;;;;N;;;;;
2720;MALTESE CROSS;So;0;ON;;;;;N;;;;;
2721;STAR OF DAVID;So;0;ON;;;;;N;;;;;
2722;FOUR TEARDROP-SPOKED ASTERISK;So;0;ON;;;;;N;;;;;
2723;FOUR BALLOON-SPOKED ASTERISK;So;0;ON;;;;;N;;;;;
2724;HEAVY FOUR BALLOON-SPOKED ASTERISK;So;0;ON;;;;;N;;;;;
2725;FOUR CLUB-SPOKED ASTERISK;So;0;ON;;;;;N;;;;;
2726;BLACK FOUR POINTED STAR;So;0;ON;;;;;N;;;;;
2727;WHITE FOUR POINTED STAR;So;0;ON;;;;;N;;;;;
2728;SPARKLES;So;0;ON;;;;;N;;;;;
2729;STRESS OUTLINED WHITE STAR;So;0;ON;;;;;N;;;;;
272A;CIRCLED WHITE STAR;So;0;ON;;;;;N;;;;;
272B;OPEN CENTRE BLACK STAR;So;0;ON;;;;;N;OPEN CENTER BLACK STAR;;;;
272C;BLACK CENTRE WHITE STAR;So;0;ON;;;;;N;BLACK CENTER WHITE STAR;;;;
272D;OUTLINED BLACK STAR;So;0;ON;;;;;N;;;;;
272E;HEAVY OUTLINED BLACK STAR;So;0;ON;;;;;N;;;;;
272F;PINWHEEL STAR;So;0;ON;;;;;N;;;;;
2730;SHADOWED WHITE STAR;So;0;ON;;;;;N;;;;;
2731;HEAVY ASTERISK;So;0;ON;;;;;N;;;;;
2732;OPEN CENTRE ASTERISK;So;0;ON;;;;;N;OPEN CENTER ASTERISK;;;;
2733;EIGHT SPOKED ASTERISK;So;0;ON;;;;;N;;;;;
2734;EIGHT POINTED BLACK STAR;So;0;ON;;;;;N;;;;;
2735;EIGHT POINTED PINWHEEL STAR;So;0;ON;;;;;N;;;;;
